EESchema Schematic File Version 4
EELAYER 30 0
EELAYER END
$Descr A1 33110 23386
encoding utf-8
Sheet 1 1
Title ""
Date ""
Rev ""
Comp ""
Comment1 ""
Comment2 ""
Comment3 ""
Comment4 ""
$EndDescr
$Comp
L Platine_BikeShare-rescue:ESP32-ESP32-footprints-Shem-Lib U5
U 1 1 60626BF1
P 13200 11550
F 0 "U5" H 13200 13387 60  0000 C CNN
F 1 "ESP32" H 13200 13281 60  0000 C CNN
F 2 "Package_DFN_QFN:QFN-48-1EP_7x7mm_P0.5mm_EP5.45x5.45mm" H 13650 12450 60  0001 C CNN
F 3 "" H 13650 12450 60  0001 C CNN
	1    13200 11550
	1    0    0    -1  
$EndComp
$Comp
L power:GND #PWR058
U 1 1 6062874A
P 13000 9550
F 0 "#PWR058" H 13000 9300 50  0001 C CNN
F 1 "GND" H 13005 9377 50  0000 C CNN
F 2 "" H 13000 9550 50  0001 C CNN
F 3 "" H 13000 9550 50  0001 C CNN
	1    13000 9550
	1    0    0    -1  
$EndComp
$Comp
L power:+3.3V #PWR056
U 1 1 606293F2
P 12100 9500
F 0 "#PWR056" H 12100 9350 50  0001 C CNN
F 1 "+3.3V" H 12115 9673 50  0000 C CNN
F 2 "" H 12100 9500 50  0001 C CNN
F 3 "" H 12100 9500 50  0001 C CNN
	1    12100 9500
	1    0    0    -1  
$EndComp
$Comp
L Device:C C44
U 1 1 6062A123
P 12700 9550
F 0 "C44" V 12448 9550 50  0000 C CNN
F 1 "0,1uF" V 12539 9550 50  0000 C CNN
F 2 "Capacitor_SMD:C_0402_1005Metric" H 12738 9400 50  0001 C CNN
F 3 "~" H 12700 9550 50  0001 C CNN
	1    12700 9550
	0    1    1    0   
$EndComp
Wire Wire Line
	12350 10000 12100 10000
Wire Wire Line
	13000 9550 12850 9550
Wire Wire Line
	12350 10400 12100 10400
Wire Wire Line
	12100 10400 12100 10300
Wire Wire Line
	12350 10300 12100 10300
Connection ~ 12100 10300
Wire Wire Line
	12100 10300 12100 10000
$Comp
L power:GND #PWR067
U 1 1 6062DCDF
P 15150 10300
F 0 "#PWR067" H 15150 10050 50  0001 C CNN
F 1 "GND" H 15155 10127 50  0000 C CNN
F 2 "" H 15150 10300 50  0001 C CNN
F 3 "" H 15150 10300 50  0001 C CNN
	1    15150 10300
	1    0    0    -1  
$EndComp
$Comp
L power:+3.3V #PWR063
U 1 1 6062DD8F
P 14450 9650
F 0 "#PWR063" H 14450 9500 50  0001 C CNN
F 1 "+3.3V" H 14465 9823 50  0000 C CNN
F 2 "" H 14450 9650 50  0001 C CNN
F 3 "" H 14450 9650 50  0001 C CNN
	1    14450 9650
	1    0    0    -1  
$EndComp
$Comp
L Device:C C48
U 1 1 6062DD99
P 14750 10300
F 0 "C48" V 14498 10300 50  0000 C CNN
F 1 "0,1uF" V 14589 10300 50  0000 C CNN
F 2 "Capacitor_SMD:C_0402_1005Metric" H 14788 10150 50  0001 C CNN
F 3 "~" H 14750 10300 50  0001 C CNN
	1    14750 10300
	0    1    1    0   
$EndComp
Wire Wire Line
	14900 10300 15150 10300
Wire Wire Line
	14050 10300 14450 10300
Wire Wire Line
	14450 9650 14450 10300
Connection ~ 14450 10300
Wire Wire Line
	14450 10300 14600 10300
$Comp
L power:GND #PWR046
U 1 1 606F6AB4
P 10150 10600
F 0 "#PWR046" H 10150 10350 50  0001 C CNN
F 1 "GND" H 10155 10427 50  0000 C CNN
F 2 "" H 10150 10600 50  0001 C CNN
F 3 "" H 10150 10600 50  0001 C CNN
	1    10150 10600
	1    0    0    -1  
$EndComp
$Comp
L power:+3.3V #PWR050
U 1 1 606F6B7E
P 10850 9800
F 0 "#PWR050" H 10850 9650 50  0001 C CNN
F 1 "+3.3V" H 10865 9973 50  0000 C CNN
F 2 "" H 10850 9800 50  0001 C CNN
F 3 "" H 10850 9800 50  0001 C CNN
	1    10850 9800
	1    0    0    -1  
$EndComp
$Comp
L Device:C C31
U 1 1 606F6B88
P 10550 10100
F 0 "C31" V 10298 10100 50  0000 C CNN
F 1 "100pF" V 10389 10100 50  0000 C CNN
F 2 "Capacitor_SMD:C_0402_1005Metric" H 10588 9950 50  0001 C CNN
F 3 "~" H 10550 10100 50  0001 C CNN
	1    10550 10100
	0    1    1    0   
$EndComp
Wire Wire Line
	10850 9800 10850 10100
Connection ~ 10850 10100
Wire Wire Line
	10850 10100 10700 10100
Wire Wire Line
	10400 10100 10150 10100
Wire Wire Line
	10850 10100 12350 10100
Wire Wire Line
	10850 10500 12350 10500
$Comp
L Device:C C32
U 1 1 6070875E
P 10550 10500
F 0 "C32" V 10298 10500 50  0000 C CNN
F 1 "0,1uF" V 10389 10500 50  0000 C CNN
F 2 "Capacitor_SMD:C_0402_1005Metric" H 10588 10350 50  0001 C CNN
F 3 "~" H 10550 10500 50  0001 C CNN
	1    10550 10500
	0    1    1    0   
$EndComp
Wire Wire Line
	10150 10600 10150 10500
Wire Wire Line
	10400 10500 10150 10500
Connection ~ 10150 10500
Wire Wire Line
	10850 10100 10850 10500
Wire Wire Line
	10700 10500 10850 10500
Connection ~ 10850 10500
Wire Wire Line
	10150 10100 10150 10500
$Comp
L power:GND #PWR052
U 1 1 60718CE6
P 11050 9250
F 0 "#PWR052" H 11050 9000 50  0001 C CNN
F 1 "GND" H 11055 9077 50  0000 C CNN
F 2 "" H 11050 9250 50  0001 C CNN
F 3 "" H 11050 9250 50  0001 C CNN
	1    11050 9250
	1    0    0    -1  
$EndComp
$Comp
L power:+3.3V #PWR055
U 1 1 60718DF2
P 11750 8450
F 0 "#PWR055" H 11750 8300 50  0001 C CNN
F 1 "+3.3V" H 11765 8623 50  0000 C CNN
F 2 "" H 11750 8450 50  0001 C CNN
F 3 "" H 11750 8450 50  0001 C CNN
	1    11750 8450
	1    0    0    -1  
$EndComp
$Comp
L Device:C C40
U 1 1 60718DFC
P 11450 8750
F 0 "C40" V 11198 8750 50  0000 C CNN
F 1 "10uF" V 11289 8750 50  0000 C CNN
F 2 "Capacitor_SMD:C_0402_1005Metric" H 11488 8600 50  0001 C CNN
F 3 "~" H 11450 8750 50  0001 C CNN
	1    11450 8750
	0    1    1    0   
$EndComp
Wire Wire Line
	11750 8450 11750 8750
Connection ~ 11750 8750
Wire Wire Line
	11750 8750 11600 8750
Wire Wire Line
	11300 8750 11050 8750
$Comp
L Device:C C41
U 1 1 60718E0C
P 11450 9150
F 0 "C41" V 11198 9150 50  0000 C CNN
F 1 "0,1uF" V 11289 9150 50  0000 C CNN
F 2 "Capacitor_SMD:C_0402_1005Metric" H 11488 9000 50  0001 C CNN
F 3 "~" H 11450 9150 50  0001 C CNN
	1    11450 9150
	0    1    1    0   
$EndComp
Wire Wire Line
	11050 9250 11050 9150
Wire Wire Line
	11300 9150 11050 9150
Connection ~ 11050 9150
Wire Wire Line
	11750 8750 11750 9150
Wire Wire Line
	11600 9150 11750 9150
Wire Wire Line
	11050 8750 11050 9150
Wire Wire Line
	12100 9500 12100 9550
Connection ~ 12100 10000
Wire Wire Line
	12100 9550 12550 9550
Connection ~ 12100 9550
Wire Wire Line
	12100 9550 12100 10000
Wire Wire Line
	11750 9150 11750 10200
Wire Wire Line
	11750 10200 12350 10200
Connection ~ 11750 9150
$Comp
L power:GND #PWR060
U 1 1 60748A59
P 13200 8850
F 0 "#PWR060" H 13200 8600 50  0001 C CNN
F 1 "GND" H 13205 8677 50  0000 C CNN
F 2 "" H 13200 8850 50  0001 C CNN
F 3 "" H 13200 8850 50  0001 C CNN
	1    13200 8850
	1    0    0    -1  
$EndComp
$Comp
L power:+3.3V #PWR059
U 1 1 60748BBD
P 13200 8300
F 0 "#PWR059" H 13200 8150 50  0001 C CNN
F 1 "+3.3V" H 13215 8473 50  0000 C CNN
F 2 "" H 13200 8300 50  0001 C CNN
F 3 "" H 13200 8300 50  0001 C CNN
	1    13200 8300
	1    0    0    -1  
$EndComp
$Comp
L Device:C C45
U 1 1 60748BC7
P 13200 8600
F 0 "C45" V 12948 8600 50  0000 C CNN
F 1 "220uF" V 13039 8600 50  0000 C CNN
F 2 "Capacitor_SMD:C_0402_1005Metric" H 13238 8450 50  0001 C CNN
F 3 "~" H 13200 8600 50  0001 C CNN
	1    13200 8600
	1    0    0    -1  
$EndComp
Wire Wire Line
	13200 8850 13200 8750
Wire Wire Line
	13200 8450 13200 8300
$Comp
L Device:Crystal Y3
U 1 1 60754780
P 11450 12300
F 0 "Y3" H 11450 12568 50  0000 C CNN
F 1 "40MHz" H 11450 12477 50  0000 C CNN
F 2 "Crystal:Crystal_SMD_0603-2Pin_6.0x3.5mm" H 11450 12300 50  0001 C CNN
F 3 "~" H 11450 12300 50  0001 C CNN
	1    11450 12300
	0    -1   -1   0   
$EndComp
$Comp
L Device:C C37
U 1 1 60755D7D
P 11050 12100
F 0 "C37" V 10798 12100 50  0000 C CNN
F 1 "22pF" V 10889 12100 50  0000 C CNN
F 2 "Capacitor_SMD:C_0402_1005Metric" H 11088 11950 50  0001 C CNN
F 3 "~" H 11050 12100 50  0001 C CNN
	1    11050 12100
	0    1    1    0   
$EndComp
$Comp
L Device:C C38
U 1 1 6070A596
P 11050 12550
F 0 "C38" V 10798 12550 50  0000 C CNN
F 1 "22pF" V 10889 12550 50  0000 C CNN
F 2 "Capacitor_SMD:C_0402_1005Metric" H 11088 12400 50  0001 C CNN
F 3 "~" H 11050 12550 50  0001 C CNN
	1    11050 12550
	0    1    1    0   
$EndComp
$Comp
L power:GND #PWR051
U 1 1 60715402
P 10900 12550
F 0 "#PWR051" H 10900 12300 50  0001 C CNN
F 1 "GND" H 10905 12377 50  0000 C CNN
F 2 "" H 10900 12550 50  0001 C CNN
F 3 "" H 10900 12550 50  0001 C CNN
	1    10900 12550
	1    0    0    -1  
$EndComp
Wire Wire Line
	10900 12550 10900 12100
Connection ~ 10900 12550
Wire Wire Line
	11200 12100 11450 12100
Wire Wire Line
	11450 12100 11450 12150
Wire Wire Line
	11200 12550 11450 12550
Wire Wire Line
	11450 12550 11450 12450
Wire Wire Line
	12350 12400 11650 12400
Wire Wire Line
	11650 12400 11650 12550
Wire Wire Line
	11650 12550 11450 12550
Connection ~ 11450 12550
Wire Wire Line
	11450 12100 11650 12100
Wire Wire Line
	11650 12100 11650 12300
Wire Wire Line
	11650 12300 12350 12300
Connection ~ 11450 12100
Wire Wire Line
	14050 10000 14050 8700
Connection ~ 14050 8700
Wire Wire Line
	14150 8700 14050 8700
Connection ~ 14050 8350
Wire Wire Line
	14050 8400 14050 8350
Wire Wire Line
	14050 8350 14050 8300
Wire Wire Line
	14150 8350 14050 8350
Wire Wire Line
	14450 8350 14450 8700
Connection ~ 14450 8700
Wire Wire Line
	14550 8700 14450 8700
Wire Wire Line
	14550 8750 14550 8700
$Comp
L power:GND #PWR064
U 1 1 6071E05E
P 14550 8750
F 0 "#PWR064" H 14550 8500 50  0001 C CNN
F 1 "GND" H 14555 8577 50  0000 C CNN
F 2 "" H 14550 8750 50  0001 C CNN
F 3 "" H 14550 8750 50  0001 C CNN
	1    14550 8750
	-1   0    0    -1  
$EndComp
$Comp
L Device:C C47
U 1 1 6071DAF5
P 14300 8700
F 0 "C47" V 14048 8700 50  0000 C CNN
F 1 "?" V 14139 8700 50  0000 C CNN
F 2 "Capacitor_SMD:C_0402_1005Metric" H 14338 8550 50  0001 C CNN
F 3 "~" H 14300 8700 50  0001 C CNN
	1    14300 8700
	0    -1   1    0   
$EndComp
$Comp
L Device:C C46
U 1 1 6071D220
P 14300 8350
F 0 "C46" V 14048 8350 50  0000 C CNN
F 1 "?" V 14139 8350 50  0000 C CNN
F 2 "Capacitor_SMD:C_0402_1005Metric" H 14338 8200 50  0001 C CNN
F 3 "~" H 14300 8350 50  0001 C CNN
	1    14300 8350
	0    -1   1    0   
$EndComp
$Comp
L Device:L L7
U 1 1 6071C368
P 14050 8550
F 0 "L7" H 14103 8596 50  0000 L CNN
F 1 "?" H 14103 8505 50  0000 L CNN
F 2 "Inductor_SMD:L_0402_1005Metric" H 14050 8550 50  0001 C CNN
F 3 "~" H 14050 8550 50  0001 C CNN
	1    14050 8550
	-1   0    0    -1  
$EndComp
$Comp
L Device:Antenna AE1
U 1 1 60719F12
P 14050 8100
F 0 "AE1" H 14130 8089 50  0000 L CNN
F 1 "Antenna" H 14130 7998 50  0000 L CNN
F 2 "Connector_PinHeader_1.00mm:PinHeader_1x01_P1.00mm_Vertical" H 14050 8100 50  0001 C CNN
F 3 "~" H 14050 8100 50  0001 C CNN
	1    14050 8100
	-1   0    0    -1  
$EndComp
$Comp
L Device:Crystal Y2
U 1 1 60751835
P 9800 11800
F 0 "Y2" H 9800 12068 50  0000 C CNN
F 1 "32,768kHz" H 9800 11977 50  0000 C CNN
F 2 "Crystal:Crystal_SMD_0603-2Pin_6.0x3.5mm" H 9800 11800 50  0001 C CNN
F 3 "~" H 9800 11800 50  0001 C CNN
	1    9800 11800
	0    -1   -1   0   
$EndComp
$Comp
L Device:C C28
U 1 1 6075199B
P 9400 11600
F 0 "C28" V 9148 11600 50  0000 C CNN
F 1 "15pF" V 9239 11600 50  0000 C CNN
F 2 "Capacitor_SMD:C_0402_1005Metric" H 9438 11450 50  0001 C CNN
F 3 "~" H 9400 11600 50  0001 C CNN
	1    9400 11600
	0    1    1    0   
$EndComp
$Comp
L Device:C C29
U 1 1 607519A5
P 9400 12050
F 0 "C29" V 9148 12050 50  0000 C CNN
F 1 "15pF" V 9239 12050 50  0000 C CNN
F 2 "Capacitor_SMD:C_0402_1005Metric" H 9438 11900 50  0001 C CNN
F 3 "~" H 9400 12050 50  0001 C CNN
	1    9400 12050
	0    1    1    0   
$EndComp
$Comp
L power:GND #PWR044
U 1 1 607519AF
P 9250 12050
F 0 "#PWR044" H 9250 11800 50  0001 C CNN
F 1 "GND" H 9255 11877 50  0000 C CNN
F 2 "" H 9250 12050 50  0001 C CNN
F 3 "" H 9250 12050 50  0001 C CNN
	1    9250 12050
	1    0    0    -1  
$EndComp
Wire Wire Line
	9250 12050 9250 11600
Connection ~ 9250 12050
Wire Wire Line
	9550 11600 9800 11600
Wire Wire Line
	9800 11600 9800 11650
Wire Wire Line
	9550 12050 9800 12050
Wire Wire Line
	9800 12050 9800 11950
Wire Wire Line
	10000 11900 10000 12050
Wire Wire Line
	10000 12050 9800 12050
Connection ~ 9800 12050
Wire Wire Line
	9800 11600 10000 11600
Wire Wire Line
	10000 11600 10000 11800
Connection ~ 9800 11600
$Comp
L Device:C C42
U 1 1 6075AD7A
P 11700 11200
F 0 "C42" V 11448 11200 50  0000 C CNN
F 1 "370pF" V 11539 11200 50  0000 C CNN
F 2 "Capacitor_SMD:C_0402_1005Metric" H 11738 11050 50  0001 C CNN
F 3 "~" H 11700 11200 50  0001 C CNN
	1    11700 11200
	0    1    1    0   
$EndComp
Wire Wire Line
	11850 11000 11850 11100
Wire Wire Line
	11850 11100 12350 11100
Wire Wire Line
	12150 11000 12350 11000
Wire Wire Line
	11850 11200 12350 11200
Wire Wire Line
	12350 11300 11550 11300
Wire Wire Line
	11550 11300 11550 11200
Wire Wire Line
	11750 12100 11750 11900
Wire Wire Line
	11750 11900 10000 11900
Wire Wire Line
	11750 12100 12350 12100
Wire Wire Line
	10000 11800 11900 11800
Wire Wire Line
	11900 11800 11900 12000
Wire Wire Line
	11900 12000 12350 12000
$Comp
L power:GND #PWR057
U 1 1 6077F713
P 12350 13000
F 0 "#PWR057" H 12350 12750 50  0001 C CNN
F 1 "GND" H 12355 12827 50  0000 C CNN
F 2 "" H 12350 13000 50  0001 C CNN
F 3 "" H 12350 13000 50  0001 C CNN
	1    12350 13000
	1    0    0    -1  
$EndComp
$Comp
L Device:C C43
U 1 1 6075A378
P 12000 11000
F 0 "C43" V 11748 11000 50  0000 C CNN
F 1 "370pF" V 11839 11000 50  0000 C CNN
F 2 "Capacitor_SMD:C_0402_1005Metric" H 12038 10850 50  0001 C CNN
F 3 "~" H 12000 11000 50  0001 C CNN
	1    12000 11000
	0    1    1    0   
$EndComp
$Comp
L Device:C C39
U 1 1 60784420
P 11150 11300
F 0 "C39" V 10898 11300 50  0000 C CNN
F 1 "10nF" V 10989 11300 50  0000 C CNN
F 2 "Capacitor_SMD:C_0402_1005Metric" H 11188 11150 50  0001 C CNN
F 3 "~" H 11150 11300 50  0001 C CNN
	1    11150 11300
	0    -1   1    0   
$EndComp
$Comp
L power:GND #PWR053
U 1 1 607848EA
P 11300 11300
F 0 "#PWR053" H 11300 11050 50  0001 C CNN
F 1 "GND" H 11305 11127 50  0000 C CNN
F 2 "" H 11300 11300 50  0001 C CNN
F 3 "" H 11300 11300 50  0001 C CNN
	1    11300 11300
	-1   0    0    -1  
$EndComp
$Comp
L Device:C C33
U 1 1 60782D4E
P 10750 11050
F 0 "C33" V 10498 11050 50  0000 C CNN
F 1 "3nF" V 10589 11050 50  0000 C CNN
F 2 "Capacitor_SMD:C_0402_1005Metric" H 10788 10900 50  0001 C CNN
F 3 "~" H 10750 11050 50  0001 C CNN
	1    10750 11050
	0    1    1    0   
$EndComp
$Comp
L Device:R R14
U 1 1 60783AAB
P 10750 11300
F 0 "R14" V 10543 11300 50  0000 C CNN
F 1 "20K" V 10634 11300 50  0000 C CNN
F 2 "Resistor_SMD:R_0402_1005Metric" V 10680 11300 50  0001 C CNN
F 3 "~" H 10750 11300 50  0001 C CNN
	1    10750 11300
	0    1    1    0   
$EndComp
Wire Wire Line
	10600 11050 10600 11300
Wire Wire Line
	11000 11300 10900 11300
Wire Wire Line
	10900 11050 11000 11050
Wire Wire Line
	11000 11050 11000 11300
Connection ~ 11000 11300
Wire Wire Line
	10600 11050 10600 10750
Wire Wire Line
	10600 10750 12350 10750
Connection ~ 10600 11050
Wire Wire Line
	12350 10850 11000 10850
Wire Wire Line
	11000 10850 11000 11050
Connection ~ 11000 11050
$Comp
L Device:R R15
U 1 1 607C95E4
P 12100 12650
F 0 "R15" V 11893 12650 50  0000 C CNN
F 1 "470" V 11984 12650 50  0000 C CNN
F 2 "Resistor_SMD:R_0402_1005Metric" V 12030 12650 50  0001 C CNN
F 3 "~" H 12100 12650 50  0001 C CNN
	1    12100 12650
	0    1    1    0   
$EndComp
$Comp
L Device:LED D4
U 1 1 607CA120
P 14450 12100
F 0 "D4" H 14443 11845 50  0000 C CNN
F 1 "LED" H 14443 11936 50  0000 C CNN
F 2 "LED_SMD:LED_0402_1005Metric" H 14450 12100 50  0001 C CNN
F 3 "~" H 14450 12100 50  0001 C CNN
	1    14450 12100
	-1   0    0    1   
$EndComp
Wire Wire Line
	14300 12100 14050 12100
$Comp
L Device:R R17
U 1 1 607CD0DE
P 14750 12100
F 0 "R17" V 14543 12100 50  0000 C CNN
F 1 "10K" V 14634 12100 50  0000 C CNN
F 2 "Resistor_SMD:R_0402_1005Metric" V 14680 12100 50  0001 C CNN
F 3 "~" H 14750 12100 50  0001 C CNN
	1    14750 12100
	0    1    1    0   
$EndComp
$Comp
L power:GND #PWR066
U 1 1 607CD966
P 14900 12100
F 0 "#PWR066" H 14900 11850 50  0001 C CNN
F 1 "GND" H 14905 11927 50  0000 C CNN
F 2 "" H 14900 12100 50  0001 C CNN
F 3 "" H 14900 12100 50  0001 C CNN
	1    14900 12100
	1    0    0    -1  
$EndComp
Wire Wire Line
	3750 19100 3750 18100
Wire Wire Line
	3750 18100 3950 18100
Wire Wire Line
	3450 19100 3450 17800
Wire Wire Line
	3450 17800 3950 17800
$Comp
L Platine_BikeShare-rescue:C-lora-module-rescue C4
U 1 1 58FE6423
P 2750 18900
F 0 "C4" H 2775 19000 50  0000 L CNN
F 1 "15pF" H 2775 18800 50  0000 L CNN
F 2 "Capacitor_SMD:C_0402_1005Metric" H 2788 18750 50  0001 C CNN
F 3 "" H 2750 18900 50  0000 C CNN
F 4 "KEMET" H 2750 18900 60  0001 C CNN "Manufacturer"
F 5 "http://www.tme.eu/pl/details/c0402c150j5gac/kondensatory-mlcc-smd-0402/kemet/c0402c150j5gactu/" H 2750 18900 60  0001 C CNN "Link"
F 6 "C0402C150J5GACTU" H 2750 18900 60  0001 C CNN "Name"
	1    2750 18900
	1    0    0    -1  
$EndComp
$Comp
L Platine_BikeShare-rescue:C-lora-module-rescue C2
U 1 1 58FE6451
P 2250 18900
F 0 "C2" H 2275 19000 50  0000 L CNN
F 1 "15pF" H 2275 18800 50  0000 L CNN
F 2 "Capacitor_SMD:C_0402_1005Metric" H 2288 18750 50  0001 C CNN
F 3 "" H 2250 18900 50  0000 C CNN
F 4 "http://www.tme.eu/pl/details/c0402c150j5gac/kondensatory-mlcc-smd-0402/kemet/c0402c150j5gactu/" H 2250 18900 60  0001 C CNN "Link"
F 5 "KEMET" H 2250 18900 60  0001 C CNN "Manufacturer"
F 6 "C0402C150J5GACTU" H 2250 18900 60  0001 C CNN "Name"
	1    2250 18900
	1    0    0    -1  
$EndComp
$Comp
L power:GND #PWR019
U 1 1 58FE64D8
P 3750 19400
F 0 "#PWR019" H 3750 19150 50  0001 C CNN
F 1 "GND" H 3750 19250 50  0000 C CNN
F 2 "" H 3750 19400 50  0000 C CNN
F 3 "" H 3750 19400 50  0000 C CNN
	1    3750 19400
	1    0    0    -1  
$EndComp
$Comp
L power:GND #PWR015
U 1 1 58FE64F6
P 3450 19400
F 0 "#PWR015" H 3450 19150 50  0001 C CNN
F 1 "GND" H 3450 19250 50  0000 C CNN
F 2 "" H 3450 19400 50  0000 C CNN
F 3 "" H 3450 19400 50  0000 C CNN
	1    3450 19400
	1    0    0    -1  
$EndComp
$Comp
L power:+3.3V #PWR010
U 1 1 58FE6578
P 2950 16550
F 0 "#PWR010" H 2950 16400 50  0001 C CNN
F 1 "+3.3V" H 2950 16690 50  0000 C CNN
F 2 "" H 2950 16550 50  0000 C CNN
F 3 "" H 2950 16550 50  0000 C CNN
	1    2950 16550
	1    0    0    -1  
$EndComp
$Comp
L power:+3.3V #PWR029
U 1 1 58FE6644
P 5950 19350
F 0 "#PWR029" H 5950 19200 50  0001 C CNN
F 1 "+3.3V" H 5950 19500 50  0000 C CNN
F 2 "" H 5950 19350 50  0000 C CNN
F 3 "" H 5950 19350 50  0000 C CNN
	1    5950 19350
	1    0    0    -1  
$EndComp
Wire Wire Line
	5600 19300 5600 19400
Connection ~ 5950 19400
$Comp
L power:GND #PWR030
U 1 1 58FE66EF
P 5950 19850
F 0 "#PWR030" H 5950 19600 50  0001 C CNN
F 1 "GND" H 5950 19700 50  0000 C CNN
F 2 "" H 5950 19850 50  0000 C CNN
F 3 "" H 5950 19850 50  0000 C CNN
	1    5950 19850
	1    0    0    -1  
$EndComp
$Comp
L power:GND #PWR09
U 1 1 58FE6C66
P 2600 16950
F 0 "#PWR09" H 2600 16700 50  0001 C CNN
F 1 "GND" H 2600 16800 50  0000 C CNN
F 2 "" H 2600 16950 50  0000 C CNN
F 3 "" H 2600 16950 50  0000 C CNN
	1    2600 16950
	1    0    0    -1  
$EndComp
$Comp
L power:GND #PWR011
U 1 1 58FE6C90
P 2950 16950
F 0 "#PWR011" H 2950 16700 50  0001 C CNN
F 1 "GND" H 2950 16800 50  0000 C CNN
F 2 "" H 2950 16950 50  0000 C CNN
F 3 "" H 2950 16950 50  0000 C CNN
	1    2950 16950
	1    0    0    -1  
$EndComp
Wire Wire Line
	2600 16650 2600 16600
Wire Wire Line
	2600 16600 2950 16600
Wire Wire Line
	2950 16550 2950 16600
Connection ~ 2950 16600
Wire Wire Line
	5300 16600 5300 16900
$Comp
L power:GND #PWR014
U 1 1 58FE6DFF
P 3300 16950
F 0 "#PWR014" H 3300 16700 50  0001 C CNN
F 1 "GND" H 3300 16800 50  0000 C CNN
F 2 "" H 3300 16950 50  0000 C CNN
F 3 "" H 3300 16950 50  0000 C CNN
	1    3300 16950
	1    0    0    -1  
$EndComp
Wire Wire Line
	3300 16950 3300 16700
Wire Wire Line
	3300 16700 5000 16700
Wire Wire Line
	5000 16700 5000 16900
Wire Wire Line
	5450 16700 5450 16900
Connection ~ 5000 16700
Wire Wire Line
	4850 16900 4850 15950
Wire Wire Line
	4850 15950 5450 15950
$Comp
L Platine_BikeShare-rescue:C-lora-module-rescue C13
U 1 1 58FE6FAB
P 5650 15250
F 0 "C13" H 5650 15350 50  0000 L CNN
F 1 "10nF" V 5700 15000 50  0000 L CNN
F 2 "Capacitor_SMD:C_0402_1005Metric" H 5688 15100 50  0001 C CNN
F 3 "" H 5650 15250 50  0000 C CNN
F 4 "http://www.tme.eu/pl/details/0402b103k250ct/kondensatory-mlcc-smd-0402/walsin/" H 5650 15250 60  0001 C CNN "Link"
F 5 "WALSIN" H 5650 15250 60  0001 C CNN "Manufacturer"
F 6 "0402B103K250CT" H 5650 15250 60  0001 C CNN "Name"
	1    5650 15250
	1    0    0    -1  
$EndComp
$Comp
L power:GND #PWR027
U 1 1 58FE71FB
P 5650 15500
F 0 "#PWR027" H 5650 15250 50  0001 C CNN
F 1 "GND" H 5650 15350 50  0000 C CNN
F 2 "" H 5650 15500 50  0000 C CNN
F 3 "" H 5650 15500 50  0000 C CNN
	1    5650 15500
	1    0    0    -1  
$EndComp
$Comp
L power:GND #PWR028
U 1 1 58FE722E
P 5950 15500
F 0 "#PWR028" H 5950 15250 50  0001 C CNN
F 1 "GND" H 5950 15350 50  0000 C CNN
F 2 "" H 5950 15500 50  0000 C CNN
F 3 "" H 5950 15500 50  0000 C CNN
	1    5950 15500
	1    0    0    -1  
$EndComp
Wire Wire Line
	5650 15400 5650 15500
Wire Wire Line
	5950 15400 5950 15500
Wire Wire Line
	5150 16900 5150 14900
Wire Wire Line
	5150 14900 5650 14900
Wire Wire Line
	5950 14900 5950 15100
Wire Wire Line
	5650 15100 5650 14900
Connection ~ 5650 14900
$Comp
L Platine_BikeShare-rescue:INDUCTOR-lora-module-rescue L2
U 1 1 58FE75AD
P 6500 15300
F 0 "L2" H 6600 15500 50  0000 C CNN
F 1 "33nH Wire" H 6750 15300 50  0000 C CNN
F 2 "Inductor_SMD:L_0402_1005Metric" H 6500 15300 50  0001 C CNN
F 3 "" H 6500 15300 50  0000 C CNN
F 4 "http://pl.farnell.com/te-connectivity/3-2176086-7/inductor-0402-33nh-5/dp/2116085" H 6500 15300 60  0001 C CNN "Link"
F 5 "3-2176086-7" H 6500 15300 60  0001 C CNN "Name"
F 6 "TE CONNECTIVITY" H 6500 15300 60  0001 C CNN "Manufacturer"
	1    6500 15300
	1    0    0    -1  
$EndComp
Wire Wire Line
	6500 14900 6500 15000
Connection ~ 5950 14900
Wire Wire Line
	6050 15950 6500 15950
Wire Wire Line
	6500 15600 6500 15950
$Comp
L Platine_BikeShare-rescue:C-lora-module-rescue C16
U 1 1 58FE7844
P 6500 16250
F 0 "C16" H 6300 16150 50  0000 L CNN
F 1 "8.2pF" H 6550 16150 50  0000 L CNN
F 2 "Capacitor_SMD:C_0402_1005Metric" H 6538 16100 50  0001 C CNN
F 3 "" H 6500 16250 50  0000 C CNN
F 4 "http://www.tme.eu/pl/details/grm1555c1h8r2ca01d/kondensatory-mlcc-smd-0402/murata/" H 6500 16250 60  0001 C CNN "Link"
F 5 "GRM1555C1H8R2CA01D" H 6500 16250 60  0001 C CNN "Name"
F 6 "MURATA" H 6500 16250 60  0001 C CNN "Manufacturer"
	1    6500 16250
	1    0    0    -1  
$EndComp
$Comp
L Platine_BikeShare-rescue:C-lora-module-rescue C18
U 1 1 58FE78F7
P 6800 15950
F 0 "C18" V 6650 15850 50  0000 L CNN
F 1 "22pF" V 6950 15850 50  0000 L CNN
F 2 "Capacitor_SMD:C_0402_1005Metric" H 6838 15800 50  0001 C CNN
F 3 "" H 6800 15950 50  0000 C CNN
F 4 "MURATA" V 6800 15950 60  0001 C CNN "Manufacturer"
F 5 "GRM1555C1H220JA01D" V 6800 15950 60  0001 C CNN "Name"
F 6 "https://www.tme.eu/pl/details/grm1555c1h220ja01d/kondensatory-mlcc-smd-0402/murata/" V 6800 15950 60  0001 C CNN "Link"
	1    6800 15950
	0    1    1    0   
$EndComp
Connection ~ 6500 15950
$Comp
L power:GND #PWR032
U 1 1 58FE79F5
P 6500 16500
F 0 "#PWR032" H 6500 16250 50  0001 C CNN
F 1 "GND" H 6500 16350 50  0000 C CNN
F 2 "" H 6500 16500 50  0000 C CNN
F 3 "" H 6500 16500 50  0000 C CNN
	1    6500 16500
	1    0    0    -1  
$EndComp
Wire Wire Line
	6500 16400 6500 16500
$Comp
L Platine_BikeShare-rescue:INDUCTOR-lora-module-rescue L3
U 1 1 58FE7A5E
P 7350 15950
F 0 "L3" V 7450 15950 50  0000 C CNN
F 1 "5.6nH Wire" V 7300 15950 50  0000 C CNN
F 2 "Inductor_SMD:L_0402_1005Metric" H 7350 15950 50  0001 C CNN
F 3 "" H 7350 15950 50  0000 C CNN
F 4 "https://www.tme.eu/pl/details/lqw15an5n6c10d/dlawiki-smd-0402/murata/" V 7350 15950 60  0001 C CNN "Link"
F 5 "MURATA" V 7350 15950 60  0001 C CNN "Manufacturer"
F 6 "LQW15AN5N6C10D" V 7350 15950 60  0001 C CNN "Name"
	1    7350 15950
	0    -1   -1   0   
$EndComp
Wire Wire Line
	6950 15950 7050 15950
$Comp
L Platine_BikeShare-rescue:INDUCTOR-lora-module-rescue L5
U 1 1 58FE84F7
P 8050 15950
F 0 "L5" V 8150 15950 50  0000 C CNN
F 1 "4.7nH Wire" V 8000 15950 50  0000 C CNN
F 2 "Inductor_SMD:L_0402_1005Metric" H 8050 15950 50  0001 C CNN
F 3 "" H 8050 15950 50  0000 C CNN
F 4 "FERROCORE" V 8050 15950 60  0001 C CNN "Manufacturer"
F 5 "CW0402-4.7" V 8050 15950 60  0001 C CNN "Name"
F 6 "https://www.tme.eu/pl/details/cw0402-4.7/cewki-smd/ferrocore/" V 8050 15950 60  0001 C CNN "Link"
	1    8050 15950
	0    -1   -1   0   
$EndComp
$Comp
L Platine_BikeShare-rescue:C-lora-module-rescue C21
U 1 1 58FE861B
P 8050 15550
F 0 "C21" V 8000 15300 50  0000 L CNN
F 1 "1.5pF" V 8000 15650 50  0000 L CNN
F 2 "Capacitor_SMD:C_0402_1005Metric" H 8088 15400 50  0001 C CNN
F 3 "" H 8050 15550 50  0000 C CNN
F 4 "https://www.tme.eu/pl/details/cc0402crnpo91r5/kondensatory-mlcc-smd-0402/yageo/cc0402crnpo9bn1r5/" V 8050 15550 60  0001 C CNN "Link"
F 5 "YAGEO" V 8050 15550 60  0001 C CNN "Manufacturer"
F 6 "CC0402CRNPO9BN1R5" V 8050 15550 60  0001 C CNN "Name"
	1    8050 15550
	0    1    1    0   
$EndComp
Wire Wire Line
	7700 15550 7900 15550
Wire Wire Line
	8200 15550 8400 15550
Wire Wire Line
	8400 15550 8400 15950
Wire Wire Line
	7650 15950 7700 15950
Wire Wire Line
	7700 15550 7700 15950
Connection ~ 7700 15950
$Comp
L Platine_BikeShare-rescue:C-lora-module-rescue C23
U 1 1 58FE8878
P 8400 16250
F 0 "C23" V 8250 16150 50  0000 L CNN
F 1 "3.3pF" V 8550 16150 50  0000 L CNN
F 2 "Capacitor_SMD:C_0402_1005Metric" H 8438 16100 50  0001 C CNN
F 3 "" H 8400 16250 50  0000 C CNN
F 4 "https://www.tme.eu/pl/details/cl05c3r3cb5nnnc/kondensatory-mlcc-smd-0402/samsung/" V 8400 16250 60  0001 C CNN "Link"
F 5 "CL05C3R3CB5NNNC" V 8400 16250 60  0001 C CNN "Name"
F 6 "SAMSUNG" V 8400 16250 60  0001 C CNN "Manufacturer"
	1    8400 16250
	-1   0    0    1   
$EndComp
$Comp
L power:GND #PWR036
U 1 1 58FE88FA
P 7700 16500
F 0 "#PWR036" H 7700 16250 50  0001 C CNN
F 1 "GND" H 7700 16350 50  0000 C CNN
F 2 "" H 7700 16500 50  0000 C CNN
F 3 "" H 7700 16500 50  0000 C CNN
	1    7700 16500
	1    0    0    -1  
$EndComp
$Comp
L power:GND #PWR038
U 1 1 58FE893E
P 8400 16500
F 0 "#PWR038" H 8400 16250 50  0001 C CNN
F 1 "GND" H 8400 16350 50  0000 C CNN
F 2 "" H 8400 16500 50  0000 C CNN
F 3 "" H 8400 16500 50  0000 C CNN
	1    8400 16500
	1    0    0    -1  
$EndComp
Wire Wire Line
	7700 16400 7700 16500
Wire Wire Line
	8400 16400 8400 16500
Connection ~ 8400 15950
Wire Wire Line
	8350 15950 8400 15950
$Comp
L Platine_BikeShare-rescue:INDUCTOR-lora-module-rescue L4
U 1 1 58FE9017
P 7650 17300
F 0 "L4" V 7600 17300 50  0000 C CNN
F 1 "10nH Wire" V 7750 17300 50  0000 C CNN
F 2 "Inductor_SMD:L_0402_1005Metric" H 7650 17300 50  0001 C CNN
F 3 "" H 7650 17300 50  0000 C CNN
F 4 "FERROCORE" V 7650 17300 60  0001 C CNN "Manufacturer"
F 5 "CW0402-10" V 7650 17300 60  0001 C CNN "Name"
F 6 "http://www.tme.eu/pl/details/cw0402-10/cewki-smd/ferrocore/" V 7650 17300 60  0001 C CNN "Link"
	1    7650 17300
	0    -1   -1   0   
$EndComp
$Comp
L Platine_BikeShare-rescue:C-lora-module-rescue C22
U 1 1 58FE90CD
P 8050 17550
F 0 "C22" H 8100 17450 50  0000 L CNN
F 1 "3.3pF" H 8100 17650 50  0000 L CNN
F 2 "Capacitor_SMD:C_0402_1005Metric" H 8088 17400 50  0001 C CNN
F 3 "" H 8050 17550 50  0000 C CNN
F 4 "http://www.tme.eu/pl/details/cl05c3r3cb5nnnc/kondensatory-mlcc-smd-0402/samsung/" H 8050 17550 60  0001 C CNN "Link"
F 5 "CL05C3R3CB5NNNC" H 8050 17550 60  0001 C CNN "Name"
F 6 "SAMSUNG" H 8050 17550 60  0001 C CNN "Manufacturer"
	1    8050 17550
	1    0    0    -1  
$EndComp
Wire Wire Line
	6350 17650 6350 17300
Wire Wire Line
	6350 17300 7350 17300
Wire Wire Line
	8050 17700 8050 17850
$Comp
L power:GND #PWR037
U 1 1 58FE9238
P 8050 17850
F 0 "#PWR037" H 8050 17600 50  0001 C CNN
F 1 "GND" H 8050 17700 50  0000 C CNN
F 2 "" H 8050 17850 50  0000 C CNN
F 3 "" H 8050 17850 50  0000 C CNN
	1    8050 17850
	1    0    0    -1  
$EndComp
Wire Wire Line
	7950 17300 8050 17300
Wire Wire Line
	8050 17300 8050 17400
Wire Wire Line
	2250 18250 2250 18400
Wire Wire Line
	2750 18250 2750 18750
Connection ~ 2750 18250
Wire Wire Line
	2250 18400 3950 18400
Text HLabel 3050 18550 0    60   Input ~ 0
RST
Connection ~ 2250 18400
$Comp
L Platine_BikeShare-rescue:C-lora-module-rescue C5
U 1 1 58FFD0F5
P 2900 19750
F 0 "C5" H 2925 19850 50  0000 L CNN
F 1 "47pF" V 2950 19500 50  0000 L CNN
F 2 "Capacitor_SMD:C_0402_1005Metric" H 2938 19600 50  0001 C CNN
F 3 "" H 2900 19750 50  0000 C CNN
F 4 "WALSIN" H 2900 19750 60  0001 C CNN "Manufacturer"
F 5 "0402N470J500CT" H 2900 19750 60  0001 C CNN "Name"
F 6 "http://www.tme.eu/pl/details/0402n470j500ct/kondensatory-mlcc-smd-0402/walsin/" H 2900 19750 60  0001 C CNN "Link"
	1    2900 19750
	1    0    0    -1  
$EndComp
$Comp
L Platine_BikeShare-rescue:C-lora-module-rescue C7
U 1 1 58FFD17B
P 3150 19750
F 0 "C7" H 3175 19850 50  0000 L CNN
F 1 "100nF" V 3200 19450 50  0000 L CNN
F 2 "Capacitor_SMD:C_0402_1005Metric" H 3188 19600 50  0001 C CNN
F 3 "" H 3150 19750 50  0000 C CNN
F 4 "http://www.tme.eu/pl/details/cl05b104ko5nnnd/kondensatory-mlcc-smd-0402/samsung/" H 3150 19750 60  0001 C CNN "Link"
F 5 "SAMSUNG" H 3150 19750 60  0001 C CNN "Manufacturer"
F 6 "CL05B104KO5NNND" H 3150 19750 60  0001 C CNN "Name"
	1    3150 19750
	1    0    0    -1  
$EndComp
$Comp
L power:GND #PWR013
U 1 1 58FFD85E
P 3150 20100
F 0 "#PWR013" H 3150 19850 50  0001 C CNN
F 1 "GND" H 3150 19950 50  0000 C CNN
F 2 "" H 3150 20100 50  0000 C CNN
F 3 "" H 3150 20100 50  0000 C CNN
	1    3150 20100
	1    0    0    -1  
$EndComp
Wire Wire Line
	2900 19900 2900 20100
Wire Wire Line
	3150 19900 3150 20100
Wire Wire Line
	2900 19600 2900 19450
Wire Wire Line
	2900 19450 3150 19450
Wire Wire Line
	3150 17800 3150 17950
Wire Wire Line
	3150 17950 3950 17950
Connection ~ 3150 19450
$Comp
L power:+3.3V #PWR012
U 1 1 58FFDDBB
P 3150 17800
F 0 "#PWR012" H 3150 17650 50  0001 C CNN
F 1 "+3.3V" H 3150 17940 50  0000 C CNN
F 2 "" H 3150 17800 50  0000 C CNN
F 3 "" H 3150 17800 50  0000 C CNN
	1    3150 17800
	1    0    0    -1  
$EndComp
Connection ~ 3150 17950
Wire Wire Line
	3050 18550 3950 18550
Text HLabel 4700 19300 3    60   Input ~ 0
DIO0
Text HLabel 4850 19300 3    60   Input ~ 0
DIO1
Text HLabel 5000 19300 3    60   Input ~ 0
DIO2
NoConn ~ 3950 17650
NoConn ~ 5300 19300
NoConn ~ 5450 19300
Text HLabel 6450 18400 2    60   Input ~ 0
CLK
Text HLabel 6450 18250 2    60   Input ~ 0
MISO
Text HLabel 6450 18100 2    60   Input ~ 0
MOSI
Text HLabel 6450 17950 2    60   Input ~ 0
CS
Wire Wire Line
	6350 18400 6450 18400
Wire Wire Line
	6350 18250 6450 18250
Wire Wire Line
	6350 18100 6450 18100
Wire Wire Line
	6350 17950 6450 17950
Wire Wire Line
	6350 17800 6900 17800
Wire Wire Line
	6900 17800 6900 18200
Wire Wire Line
	6900 18200 8650 18200
$Comp
L Platine_BikeShare-rescue:R-lora-module-rescue R12
U 1 1 58FFF26B
P 8800 18200
F 0 "R12" V 8700 18200 50  0000 C CNN
F 1 "1k" V 8900 18200 50  0000 C CNN
F 2 "Resistor_SMD:R_0402_1005Metric" V 8730 18200 50  0001 C CNN
F 3 "" H 8800 18200 50  0000 C CNN
F 4 "VISHAY" V 8800 18200 60  0001 C CNN "Manufacturer"
F 5 "CRCW04021K00JNTDBC" V 8800 18200 60  0001 C CNN "Name"
F 6 "http://www.tme.eu/pl/details/crcw04021k00jntdbc/rezystory-smd-0402/vishay/" V 8800 18200 60  0001 C CNN "Link"
	1    8800 18200
	0    1    1    0   
$EndComp
$Comp
L Platine_BikeShare-rescue:C-lora-module-rescue C27
U 1 1 58FFF3FE
P 9200 18400
F 0 "C27" H 9250 18500 50  0000 L CNN
F 1 "1nF" H 9050 18300 50  0000 L CNN
F 2 "Capacitor_SMD:C_0402_1005Metric" H 9238 18250 50  0001 C CNN
F 3 "" H 9200 18400 50  0000 C CNN
F 4 "http://www.tme.eu/pl/details/cl05b102kb5nnnc/kondensatory-mlcc-smd-0402/samsung/" H 9200 18400 60  0001 C CNN "Link"
F 5 "SAMSUNG" H 9200 18400 60  0001 C CNN "Manufacturer"
F 6 "CL05B102KB5NNNC" H 9200 18400 60  0001 C CNN "Name"
	1    9200 18400
	-1   0    0    1   
$EndComp
$Comp
L power:GND #PWR042
U 1 1 58FFF86C
P 9200 18650
F 0 "#PWR042" H 9200 18400 50  0001 C CNN
F 1 "GND" H 9200 18500 50  0000 C CNN
F 2 "" H 9200 18650 50  0000 C CNN
F 3 "" H 9200 18650 50  0000 C CNN
	1    9200 18650
	1    0    0    -1  
$EndComp
Wire Wire Line
	8950 18200 9000 18200
Wire Wire Line
	9200 18200 9200 18250
Wire Wire Line
	9200 18550 9200 18650
$Comp
L Platine_BikeShare-rescue:C-lora-module-rescue C30
U 1 1 59000B26
P 10250 16100
F 0 "C30" V 10100 16050 50  0000 L CNN
F 1 "47pF" V 10400 16050 50  0000 L CNN
F 2 "Capacitor_SMD:C_0402_1005Metric" H 10288 15950 50  0001 C CNN
F 3 "" H 10250 16100 50  0000 C CNN
F 4 "GRM1555C1H470JA01D" V 10250 16100 60  0001 C CNN "Name"
F 5 "MURATA" V 10250 16100 60  0001 C CNN "Manufacturer"
F 6 "https://www.tme.eu/pl/details/grm1555c1h470ja01d/kondensatory-mlcc-smd-0402/murata/" V 10250 16100 60  0001 C CNN "Link"
	1    10250 16100
	0    1    1    0   
$EndComp
$Comp
L Platine_BikeShare-rescue:INDUCTOR-lora-module-rescue L6
U 1 1 59000F77
P 10700 16100
F 0 "L6" V 10800 16200 50  0000 C CNN
F 1 "0R" V 10800 16000 50  0000 C CNN
F 2 "Inductor_SMD:L_0402_1005Metric" H 10700 16100 50  0001 C CNN
F 3 "" H 10700 16100 50  0000 C CNN
	1    10700 16100
	0    -1   -1   0   
$EndComp
$Comp
L power:GND #PWR043
U 1 1 59026573
P 9600 16700
F 0 "#PWR043" H 9600 16450 50  0001 C CNN
F 1 "GND" H 9600 16550 50  0000 C CNN
F 2 "" H 9600 16700 50  0000 C CNN
F 3 "" H 9600 16700 50  0000 C CNN
	1    9600 16700
	1    0    0    -1  
$EndComp
Wire Wire Line
	9600 16600 9600 16700
Connection ~ 8050 17300
Wire Wire Line
	8750 17300 8850 17300
Wire Wire Line
	8850 17300 8850 16100
Wire Wire Line
	8850 16100 9100 16100
Wire Wire Line
	9100 16250 9000 16250
Wire Wire Line
	9000 16250 9000 18200
$Comp
L Platine_BikeShare-rescue:C-lora-module-rescue C8
U 1 1 59028929
P 3450 19250
F 0 "C8" H 3500 19150 50  0000 L CNN
F 1 "100nF" V 3400 19350 50  0000 L CNN
F 2 "Capacitor_SMD:C_0402_1005Metric" H 3488 19100 50  0001 C CNN
F 3 "" H 3450 19250 50  0000 C CNN
F 4 "http://www.tme.eu/pl/details/cl05b104ko5nnnd/kondensatory-mlcc-smd-0402/samsung/" H 3450 19250 60  0001 C CNN "Link"
F 5 "SAMSUNG" H 3450 19250 60  0001 C CNN "Manufacturer"
F 6 "CL05B104KO5NNND" H 3450 19250 60  0001 C CNN "Name"
	1    3450 19250
	1    0    0    -1  
$EndComp
$Comp
L Platine_BikeShare-rescue:C-lora-module-rescue C9
U 1 1 590289BA
P 3750 19250
F 0 "C9" H 3800 19150 50  0000 L CNN
F 1 "100nF" V 3700 19350 50  0000 L CNN
F 2 "Capacitor_SMD:C_0402_1005Metric" H 3788 19100 50  0001 C CNN
F 3 "" H 3750 19250 50  0000 C CNN
F 4 "http://www.tme.eu/pl/details/cl05b104ko5nnnd/kondensatory-mlcc-smd-0402/samsung/" H 3750 19250 60  0001 C CNN "Link"
F 5 "SAMSUNG" H 3750 19250 60  0001 C CNN "Manufacturer"
F 6 "CL05B104KO5NNND" H 3750 19250 60  0001 C CNN "Name"
	1    3750 19250
	1    0    0    -1  
$EndComp
$Comp
L Platine_BikeShare-rescue:C-lora-module-rescue C3
U 1 1 590295E5
P 2600 16800
F 0 "C3" H 2450 16700 50  0000 L CNN
F 1 "47pF" H 2350 16900 50  0000 L CNN
F 2 "Capacitor_SMD:C_0402_1005Metric" H 2638 16650 50  0001 C CNN
F 3 "" H 2600 16800 50  0000 C CNN
F 4 "WALSIN" H 2600 16800 60  0001 C CNN "Manufacturer"
F 5 "0402N470J500CT" H 2600 16800 60  0001 C CNN "Name"
F 6 "http://www.tme.eu/pl/details/0402n470j500ct/kondensatory-mlcc-smd-0402/walsin/" H 2600 16800 60  0001 C CNN "Link"
	1    2600 16800
	1    0    0    -1  
$EndComp
$Comp
L Platine_BikeShare-rescue:C-lora-module-rescue C15
U 1 1 59029B4E
P 5950 19600
F 0 "C15" H 6000 19500 50  0000 L CNN
F 1 "100nF" H 6000 19700 50  0000 L CNN
F 2 "Capacitor_SMD:C_0402_1005Metric" H 5988 19450 50  0001 C CNN
F 3 "" H 5950 19600 50  0000 C CNN
F 4 "http://www.tme.eu/pl/details/cl05b104ko5nnnd/kondensatory-mlcc-smd-0402/samsung/" H 5950 19600 60  0001 C CNN "Link"
F 5 "SAMSUNG" H 5950 19600 60  0001 C CNN "Manufacturer"
F 6 "CL05B104KO5NNND" H 5950 19600 60  0001 C CNN "Name"
	1    5950 19600
	1    0    0    -1  
$EndComp
$Comp
L Platine_BikeShare-rescue:C-lora-module-rescue C6
U 1 1 590A447C
P 2950 16800
F 0 "C6" H 2800 16700 50  0000 L CNN
F 1 "100nF" H 2700 16900 50  0000 L CNN
F 2 "Capacitor_SMD:C_0402_1005Metric" H 2988 16650 50  0001 C CNN
F 3 "" H 2950 16800 50  0000 C CNN
F 4 "http://www.tme.eu/pl/details/cl05b104ko5nnnd/kondensatory-mlcc-smd-0402/samsung/" H 2950 16800 60  0001 C CNN "Link"
F 5 "SAMSUNG" H 2950 16800 60  0001 C CNN "Manufacturer"
F 6 "CL05B104KO5NNND" H 2950 16800 60  0001 C CNN "Name"
	1    2950 16800
	1    0    0    -1  
$EndComp
$Comp
L Platine_BikeShare-rescue:C-lora-module-rescue C14
U 1 1 590BBFA1
P 5950 15250
F 0 "C14" H 5950 15350 50  0000 L CNN
F 1 "47pF" V 6000 15000 50  0000 L CNN
F 2 "Capacitor_SMD:C_0402_1005Metric" H 5988 15100 50  0001 C CNN
F 3 "" H 5950 15250 50  0000 C CNN
F 4 "WALSIN" H 5950 15250 60  0001 C CNN "Manufacturer"
F 5 "0402N470J500CT" H 5950 15250 60  0001 C CNN "Name"
F 6 "http://www.tme.eu/pl/details/0402n470j500ct/kondensatory-mlcc-smd-0402/walsin/" H 5950 15250 60  0001 C CNN "Link"
	1    5950 15250
	1    0    0    -1  
$EndComp
$Comp
L Platine_BikeShare-rescue:C-lora-module-rescue C24
U 1 1 590BE275
P 8600 17300
F 0 "C24" V 8550 17100 50  0000 L CNN
F 1 "47pF" V 8700 17350 50  0000 L CNN
F 2 "Capacitor_SMD:C_0402_1005Metric" H 8638 17150 50  0001 C CNN
F 3 "" H 8600 17300 50  0000 C CNN
F 4 "WALSIN" H 8600 17300 60  0001 C CNN "Manufacturer"
F 5 "0402N470J500CT" H 8600 17300 60  0001 C CNN "Name"
F 6 "http://www.tme.eu/pl/details/0402n470j500ct/kondensatory-mlcc-smd-0402/walsin/" H 8600 17300 60  0001 C CNN "Link"
	1    8600 17300
	0    1    1    0   
$EndComp
Connection ~ 9000 18200
$Comp
L Platine_BikeShare-rescue:INDUCTOR-lora-module-rescue L1
U 1 1 58FE6E80
P 5750 15950
F 0 "L1" V 5800 16200 50  0000 C CNN
F 1 "2.2nH Wire" V 5700 15950 50  0000 C CNN
F 2 "Inductor_SMD:L_0402_1005Metric" H 5750 15950 50  0001 C CNN
F 3 "" H 5750 15950 50  0000 C CNN
F 4 "FERROCORE" V 5750 15950 60  0001 C CNN "Manufacturer"
F 5 "http://www.tme.eu/pl/details/cw0805-2.2/cewki-smd/ferrocore/" V 5750 15950 60  0001 C CNN "Link"
F 6 "CW0805-2.2" V 5750 15950 60  0001 C CNN "Name"
	1    5750 15950
	0    -1   -1   0   
$EndComp
$Comp
L Platine_BikeShare-rescue:C-lora-module-rescue C20
U 1 1 590C06CB
P 7700 16250
F 0 "C20" H 7750 16350 50  0000 L CNN
F 1 "8.2pF" H 7450 16150 50  0000 L CNN
F 2 "Capacitor_SMD:C_0402_1005Metric" H 7738 16100 50  0001 C CNN
F 3 "" H 7700 16250 50  0000 C CNN
F 4 "http://www.tme.eu/pl/details/grm1555c1h8r2ca01d/kondensatory-mlcc-smd-0402/murata/" H 7700 16250 60  0001 C CNN "Link"
F 5 "GRM1555C1H8R2CA01D" H 7700 16250 60  0001 C CNN "Name"
F 6 "MURATA" H 7700 16250 60  0001 C CNN "Manufacturer"
	1    7700 16250
	1    0    0    -1  
$EndComp
$Comp
L Platine_BikeShare-rescue:C-lora-module-rescue C26
U 1 1 59928DBD
P 9100 14950
F 0 "C26" H 9100 15050 50  0000 L CNN
F 1 "10uF" H 9100 14850 50  0000 L CNN
F 2 "Capacitor_SMD:C_0402_1005Metric" H 9138 14800 50  0001 C CNN
F 3 "" H 9100 14950 50  0000 C CNN
F 4 "http://www.tme.eu/pl/details/gcm21br70j106ke22l/kondensatory-mlcc-smd-0805/murata/" H 9100 14950 60  0001 C CNN "Link"
F 5 "MURATA" H 9100 14950 60  0001 C CNN "Manufacturer"
F 6 "GCM21BR70J106KE22L" H 9100 14950 60  0001 C CNN "Name"
	1    9100 14950
	1    0    0    -1  
$EndComp
$Comp
L power:GND #PWR041
U 1 1 599295F0
P 9100 15250
F 0 "#PWR041" H 9100 15000 50  0001 C CNN
F 1 "GND" H 9100 15100 50  0000 C CNN
F 2 "" H 9100 15250 50  0001 C CNN
F 3 "" H 9100 15250 50  0001 C CNN
	1    9100 15250
	1    0    0    -1  
$EndComp
Wire Wire Line
	9100 15100 9100 15250
$Comp
L Platine_BikeShare-rescue:SX1276-lora-module-rescue U1
U 1 1 5992E56F
P 5150 18100
F 0 "U1" H 4200 17000 60  0000 C CNN
F 1 "SX1276" H 5150 18100 60  0000 C CNN
F 2 "Package_DFN_QFN:QFN-28-1EP_6x6mm_P0.65mm_EP4.8x4.8mm" H 4850 18100 60  0001 C CNN
F 3 "" H 4850 18100 60  0001 C CNN
F 4 "SEMTECH" H 5150 18100 60  0001 C CNN "Manufacturer"
F 5 "http://pl.mouser.com/ProductDetail/Semtech/SX1276IMLTRT/?qs=sGAEpiMZZMtzPgOfznR9QX5rqU4bc2QM6PQA53z5lyI%3d" H 5150 18100 60  0001 C CNN "Link"
F 6 "SX1276" H 5150 18100 60  0001 C CNN "Name"
	1    5150 18100
	1    0    0    -1  
$EndComp
$Comp
L Platine_BikeShare-rescue:PE4259-lora-module-rescue U3
U 1 1 5992E8B8
P 9600 16100
F 0 "U3" H 9350 16450 60  0000 C CNN
F 1 "PE4259" H 9800 16450 60  0000 C CNN
F 2 "Package_TO_SOT_SMD:SOT-363_SC-70-6" H 10000 15800 60  0001 C CNN
F 3 "" H 10000 15800 60  0001 C CNN
F 4 "https://www.digikey.com/products/en/rf-if-and-rfid/rf-switches/865?k=PE4259" H 9600 16100 60  0001 C CNN "Link"
F 5 "Peregrine Semiconductor" H 9600 16100 60  0001 C CNN "Manufacturer"
F 6 "PE4259" H 9600 16100 60  0001 C CNN "Name"
	1    9600 16100
	1    0    0    -1  
$EndComp
NoConn ~ 5600 16900
NoConn ~ 4700 16900
$Comp
L Platine_BikeShare-rescue:C-lora-module-rescue C25
U 1 1 59935A7C
P 8700 14950
F 0 "C25" H 8550 14850 50  0000 L CNN
F 1 "1nF" H 8550 15050 50  0000 L CNN
F 2 "Capacitor_SMD:C_0402_1005Metric" H 8738 14800 50  0001 C CNN
F 3 "" H 8700 14950 50  0000 C CNN
F 4 "VISHAY" V 8700 14950 60  0001 C CNN "Manufacturer"
F 5 "https://www.tme.eu/pl/details/vj0402y102kxacw2bc/kondensatory-mlcc-smd-0402/vishay/" V 8700 14950 60  0001 C CNN "Link"
F 6 "VJ0402Y102KXACW2BC" V 8700 14950 60  0001 C CNN "Name"
	1    8700 14950
	-1   0    0    1   
$EndComp
$Comp
L power:GND #PWR040
U 1 1 59935F61
P 8700 15250
F 0 "#PWR040" H 8700 15000 50  0001 C CNN
F 1 "GND" H 8700 15100 50  0000 C CNN
F 2 "" H 8700 15250 50  0001 C CNN
F 3 "" H 8700 15250 50  0001 C CNN
	1    8700 15250
	1    0    0    -1  
$EndComp
Wire Wire Line
	8700 15100 8700 15250
$Comp
L Platine_BikeShare-rescue:CONN_COAXIAL-lora-module-rescue J3
U 1 1 59CF40CD
P 11150 16100
F 0 "J3" H 11160 16220 50  0000 C CNN
F 1 "SMA" V 11265 16100 50  0000 C CNN
F 2 "Connector_PinHeader_1.00mm:PinHeader_1x02_P1.00mm_Vertical" H 11150 16100 50  0001 C CNN
F 3 "" H 11150 16100 50  0001 C CNN
	1    11150 16100
	1    0    0    -1  
$EndComp
$Comp
L power:GND #PWR049
U 1 1 59CF457A
P 11150 16700
F 0 "#PWR049" H 11150 16450 50  0001 C CNN
F 1 "GND" H 11150 16550 50  0000 C CNN
F 2 "" H 11150 16700 50  0000 C CNN
F 3 "" H 11150 16700 50  0000 C CNN
	1    11150 16700
	1    0    0    -1  
$EndComp
Wire Wire Line
	11150 16300 11150 16700
Wire Wire Line
	5600 19400 5950 19400
Wire Wire Line
	5950 19750 5950 19800
Wire Wire Line
	6400 19800 5950 19800
Wire Wire Line
	6400 18550 6400 18850
Connection ~ 6400 18850
Connection ~ 5950 19800
Wire Wire Line
	6350 18850 6400 18850
Wire Wire Line
	6350 18550 6400 18550
Wire Wire Line
	5950 19350 5950 19400
Wire Wire Line
	5950 19400 5950 19450
Wire Wire Line
	2950 16600 5300 16600
Wire Wire Line
	2950 16600 2950 16650
Wire Wire Line
	5000 16700 5450 16700
Wire Wire Line
	5650 14900 5950 14900
Wire Wire Line
	5950 14900 6500 14900
Wire Wire Line
	6500 15950 6650 15950
Wire Wire Line
	6500 15950 6500 16100
Wire Wire Line
	7700 15950 7750 15950
Wire Wire Line
	7700 15950 7700 16100
Wire Wire Line
	8400 15950 8400 16100
Wire Wire Line
	8400 15950 9100 15950
Wire Wire Line
	2750 18250 3950 18250
Wire Wire Line
	2250 18400 2250 18750
Wire Wire Line
	3150 19450 3150 19600
Wire Wire Line
	3150 17950 3150 19450
Wire Wire Line
	8050 17300 8450 17300
Wire Wire Line
	9000 18200 9200 18200
Wire Wire Line
	6400 18850 6400 19800
Wire Wire Line
	5950 19800 5950 19850
Wire Wire Line
	2750 19050 2500 19050
$Comp
L power:GND #PWR08
U 1 1 60832A27
P 2500 19050
F 0 "#PWR08" H 2500 18800 50  0001 C CNN
F 1 "GND" H 2500 18900 50  0000 C CNN
F 2 "" H 2500 19050 50  0000 C CNN
F 3 "" H 2500 19050 50  0000 C CNN
	1    2500 19050
	1    0    0    -1  
$EndComp
Connection ~ 2500 19050
Wire Wire Line
	2500 19050 2250 19050
$Comp
L Device:Crystal Y1
U 1 1 60836EB4
P 2500 18250
F 0 "Y1" H 2500 18518 50  0000 C CNN
F 1 "32 MHz" H 2500 18427 50  0000 C CNN
F 2 "Crystal:Crystal_SMD_0603-2Pin_6.0x3.5mm" H 2500 18250 50  0001 C CNN
F 3 "~" H 2500 18250 50  0001 C CNN
	1    2500 18250
	1    0    0    -1  
$EndComp
Wire Wire Line
	2250 18250 2350 18250
Wire Wire Line
	2650 18250 2750 18250
Wire Wire Line
	2900 20100 3150 20100
Connection ~ 3150 20100
NoConn ~ 5150 19300
NoConn ~ 12350 10650
$Comp
L power:+3.3V #PWR039
U 1 1 60971859
P 8700 14650
F 0 "#PWR039" H 8700 14500 50  0001 C CNN
F 1 "+3.3V" H 8700 14790 50  0000 C CNN
F 2 "" H 8700 14650 50  0000 C CNN
F 3 "" H 8700 14650 50  0000 C CNN
	1    8700 14650
	1    0    0    -1  
$EndComp
Wire Wire Line
	8700 14650 8700 14800
Wire Wire Line
	8700 14800 9100 14800
Connection ~ 8700 14800
Wire Wire Line
	9600 15600 9600 14800
Wire Wire Line
	9600 14800 9100 14800
Connection ~ 9100 14800
Text HLabel 12300 11700 0    50   Input ~ 0
DIO2
Text HLabel 12350 11800 0    50   Input ~ 0
DIO1
Text HLabel 14050 12200 2    50   Input ~ 0
DIO0
Text HLabel 14050 11300 2    50   Input ~ 0
CLK
Text HLabel 14050 10500 2    50   Input ~ 0
RST
NoConn ~ 14050 11200
NoConn ~ 14050 11400
NoConn ~ 14050 10800
Text HLabel 14050 11600 2    50   Input ~ 0
CS
Text HLabel 14050 12300 2    50   Input ~ 0
MOSI
Text HLabel 14050 11700 2    50   Input ~ 0
MISO
$Comp
L Connector:USB_B_Mini J1
U 1 1 6079E749
P 3700 2200
F 0 "J1" H 3757 2667 50  0000 C CNN
F 1 "USB_B_Micro" H 3757 2576 50  0000 C CNN
F 2 "Connector_USB:USB_Micro-B_Wuerth_629105150521" H 3850 2150 50  0001 C CNN
F 3 "~" H 3850 2150 50  0001 C CNN
	1    3700 2200
	1    0    0    -1  
$EndComp
$Comp
L Device:Fuse F1
U 1 1 607A12FE
P 4600 2000
F 0 "F1" V 4403 2000 50  0000 C CNN
F 1 "6V 500mA" V 4494 2000 50  0000 C CNN
F 2 "Resistor_SMD:R_2512_6332Metric" V 4530 2000 50  0001 C CNN
F 3 "~" H 4600 2000 50  0001 C CNN
	1    4600 2000
	0    1    1    0   
$EndComp
$Comp
L power:+5V #PWR016
U 1 1 607A329A
P 5000 1450
F 0 "#PWR016" H 5000 1300 50  0001 C CNN
F 1 "+5V" H 5015 1623 50  0000 C CNN
F 2 "" H 5000 1450 50  0001 C CNN
F 3 "" H 5000 1450 50  0001 C CNN
	1    5000 1450
	1    0    0    -1  
$EndComp
$Comp
L lora-module-cache:GND #PWR017
U 1 1 607A48D4
P 5000 2650
F 0 "#PWR017" H 5000 2400 50  0001 C CNN
F 1 "GND" H 5005 2477 50  0000 C CNN
F 2 "" H 5000 2650 50  0001 C CNN
F 3 "" H 5000 2650 50  0001 C CNN
	1    5000 2650
	1    0    0    -1  
$EndComp
$Comp
L Device:D_TVS D2
U 1 1 607A8FFD
P 5000 2250
F 0 "D2" V 4954 2330 50  0000 L CNN
F 1 "RSB6.8S" V 5045 2330 50  0000 L CNN
F 2 "Diode_SMD:D_SOD-523" H 5000 2250 50  0001 C CNN
F 3 "~" H 5000 2250 50  0001 C CNN
	1    5000 2250
	0    1    1    0   
$EndComp
$Comp
L Device:R R7
U 1 1 607AABB0
P 4300 2200
F 0 "R7" V 4093 2200 50  0000 C CNN
F 1 "22" V 4184 2200 50  0000 C CNN
F 2 "Resistor_SMD:R_0402_1005Metric" V 4230 2200 50  0001 C CNN
F 3 "~" H 4300 2200 50  0001 C CNN
	1    4300 2200
	0    1    1    0   
$EndComp
$Comp
L Device:R R8
U 1 1 607ABC79
P 4300 2300
F 0 "R8" V 4093 2300 50  0000 C CNN
F 1 "22" V 4184 2300 50  0000 C CNN
F 2 "Resistor_SMD:R_0402_1005Metric" V 4230 2300 50  0001 C CNN
F 3 "~" H 4300 2300 50  0001 C CNN
	1    4300 2300
	0    1    1    0   
$EndComp
NoConn ~ 4000 2400
Wire Wire Line
	4000 2200 4150 2200
Wire Wire Line
	4000 2300 4150 2300
Wire Wire Line
	4000 2000 4450 2000
Wire Wire Line
	4750 2000 5000 2000
Wire Wire Line
	5000 2000 5000 1550
Wire Wire Line
	5000 2100 5000 2000
Connection ~ 5000 2000
Wire Wire Line
	5000 2400 5000 2600
Wire Wire Line
	3600 2600 3700 2600
Wire Wire Line
	3700 2600 5000 2600
Connection ~ 3700 2600
Connection ~ 5000 2600
Wire Wire Line
	5000 2600 5000 2650
Text HLabel 4500 2200 2    60   Input ~ 0
D_P
Text HLabel 4500 2300 2    60   Input ~ 0
D_N
Wire Wire Line
	4450 2300 4500 2300
Wire Wire Line
	4450 2200 4500 2200
$Comp
L Device:R R9
U 1 1 60840172
P 5500 2100
F 0 "R9" H 5430 2054 50  0000 R CNN
F 1 "10K" H 5430 2145 50  0000 R CNN
F 2 "Resistor_SMD:R_0402_1005Metric" V 5430 2100 50  0001 C CNN
F 3 "~" H 5500 2100 50  0001 C CNN
	1    5500 2100
	-1   0    0    1   
$EndComp
$Comp
L lora-module-cache:GND #PWR020
U 1 1 608408F5
P 5500 2700
F 0 "#PWR020" H 5500 2450 50  0001 C CNN
F 1 "GND" H 5505 2527 50  0000 C CNN
F 2 "" H 5500 2700 50  0001 C CNN
F 3 "" H 5500 2700 50  0001 C CNN
	1    5500 2700
	1    0    0    -1  
$EndComp
$Comp
L Device:R R11
U 1 1 60840E85
P 6050 1850
F 0 "R11" H 5980 1804 50  0000 R CNN
F 1 "1K" H 5980 1895 50  0000 R CNN
F 2 "Resistor_SMD:R_0402_1005Metric" V 5980 1850 50  0001 C CNN
F 3 "~" H 6050 1850 50  0001 C CNN
	1    6050 1850
	-1   0    0    1   
$EndComp
$Comp
L Device:D D3
U 1 1 60841ACF
P 6500 1950
F 0 "D3" V 6546 1870 50  0000 R CNN
F 1 "1N5819" V 6455 1870 50  0000 R CNN
F 2 "Diode_SMD:D_SOD-323" H 6500 1950 50  0001 C CNN
F 3 "~" H 6500 1950 50  0001 C CNN
	1    6500 1950
	0    -1   -1   0   
$EndComp
$Comp
L Transistor_FET:AO3401A Q2
U 1 1 60843856
P 6050 2200
F 0 "Q2" V 6299 2200 50  0000 C CNN
F 1 "AO3401A" V 6390 2200 50  0000 C CNN
F 2 "Package_TO_SOT_SMD:SOT-23" H 6250 2125 50  0001 L CIN
F 3 "http://www.aosmd.com/pdfs/datasheet/AO3401A.pdf" H 6050 2200 50  0001 L CNN
	1    6050 2200
	0    -1   1    0   
$EndComp
$Comp
L Device:C C12
U 1 1 6087640B
P 6500 3150
F 0 "C12" H 6615 3196 50  0000 L CNN
F 1 "1uF" H 6615 3105 50  0000 L CNN
F 2 "Capacitor_SMD:C_0402_1005Metric" H 6538 3000 50  0001 C CNN
F 3 "~" H 6500 3150 50  0001 C CNN
	1    6500 3150
	1    0    0    -1  
$EndComp
$Comp
L lora-module-cache:GND #PWR026
U 1 1 60877AAF
P 6500 3300
F 0 "#PWR026" H 6500 3050 50  0001 C CNN
F 1 "GND" H 6505 3127 50  0000 C CNN
F 2 "" H 6500 3300 50  0001 C CNN
F 3 "" H 6500 3300 50  0001 C CNN
	1    6500 3300
	1    0    0    -1  
$EndComp
Wire Wire Line
	6500 3000 6500 2300
Connection ~ 6500 2300
Wire Wire Line
	6500 2300 6500 2100
Wire Wire Line
	5000 1550 5500 1550
Wire Wire Line
	6500 1550 6500 1800
Connection ~ 5000 1550
Wire Wire Line
	5000 1550 5000 1450
Wire Wire Line
	6050 1700 6050 1550
Connection ~ 6050 1550
Wire Wire Line
	6050 1550 6500 1550
Wire Wire Line
	5500 1950 5500 1550
Connection ~ 5500 1550
Wire Wire Line
	5500 1550 6050 1550
Wire Wire Line
	5500 2250 5500 2700
Wire Wire Line
	6250 2300 6500 2300
$Comp
L lora-module-cache:+3.3V #PWR035
U 1 1 60932160
P 8750 2300
F 0 "#PWR035" H 8750 2150 50  0001 C CNN
F 1 "+3.3V" V 8765 2428 50  0000 L CNN
F 2 "" H 8750 2300 50  0001 C CNN
F 3 "" H 8750 2300 50  0001 C CNN
	1    8750 2300
	0    1    1    0   
$EndComp
$Comp
L Device:C C17
U 1 1 609363A1
P 8200 2700
F 0 "C17" H 8315 2746 50  0000 L CNN
F 1 "2,7uF" H 8315 2655 50  0000 L CNN
F 2 "Capacitor_SMD:C_0402_1005Metric" H 8238 2550 50  0001 C CNN
F 3 "~" H 8200 2700 50  0001 C CNN
	1    8200 2700
	1    0    0    -1  
$EndComp
$Comp
L lora-module-cache:GND #PWR033
U 1 1 60936F96
P 8200 2850
F 0 "#PWR033" H 8200 2600 50  0001 C CNN
F 1 "GND" H 8205 2677 50  0000 C CNN
F 2 "" H 8200 2850 50  0001 C CNN
F 3 "" H 8200 2850 50  0001 C CNN
	1    8200 2850
	1    0    0    -1  
$EndComp
Wire Wire Line
	8200 2300 8200 2550
Connection ~ 8200 2300
$Comp
L Connector:Conn_01x02_Female J2
U 1 1 609667A2
P 6650 4100
F 0 "J2" H 6678 4076 50  0000 L CNN
F 1 "Conn_01x02_Female" H 6678 3985 50  0000 L CNN
F 2 "Connector_PinSocket_2.54mm:PinSocket_1x02_P2.54mm_Vertical" H 6650 4100 50  0001 C CNN
F 3 "~" H 6650 4100 50  0001 C CNN
	1    6650 4100
	1    0    0    -1  
$EndComp
$Comp
L lora-module-cache:GND #PWR024
U 1 1 60968B59
P 6150 4650
F 0 "#PWR024" H 6150 4400 50  0001 C CNN
F 1 "GND" H 6155 4477 50  0000 C CNN
F 2 "" H 6150 4650 50  0001 C CNN
F 3 "" H 6150 4650 50  0001 C CNN
	1    6150 4650
	1    0    0    -1  
$EndComp
$Comp
L Device:C C10
U 1 1 60968FD7
P 5550 4400
F 0 "C10" H 5665 4446 50  0000 L CNN
F 1 "220nF" H 5665 4355 50  0000 L CNN
F 2 "Capacitor_SMD:C_0402_1005Metric" H 5588 4250 50  0001 C CNN
F 3 "~" H 5550 4400 50  0001 C CNN
	1    5550 4400
	1    0    0    -1  
$EndComp
$Comp
L lora-module-cache:GND #PWR021
U 1 1 60979088
P 5550 4650
F 0 "#PWR021" H 5550 4400 50  0001 C CNN
F 1 "GND" H 5555 4477 50  0000 C CNN
F 2 "" H 5550 4650 50  0001 C CNN
F 3 "" H 5550 4650 50  0001 C CNN
	1    5550 4650
	1    0    0    -1  
$EndComp
$Comp
L lora-module-cache:GND #PWR018
U 1 1 609794E6
P 5000 4650
F 0 "#PWR018" H 5000 4400 50  0001 C CNN
F 1 "GND" H 5005 4477 50  0000 C CNN
F 2 "" H 5000 4650 50  0001 C CNN
F 3 "" H 5000 4650 50  0001 C CNN
	1    5000 4650
	1    0    0    -1  
$EndComp
$Comp
L TP4054-42-SOT25-R:TP4054-42-SOT25-R IC2
U 1 1 609998FF
P 4650 3900
F 0 "IC2" H 5250 4165 50  0000 C CNN
F 1 "TP4054-42-SOT25-R" H 5250 4074 50  0000 C CNN
F 2 "Package_TO_SOT_SMD:TSOT-23-5" H 5700 4000 50  0001 L CNN
F 3 "http://images.100y.com.tw/pdf_file/38-TP-TP4054x.pdf" H 5700 3900 50  0001 L CNN
F 4 "Standalone Linear Li-ion Battery Charger with Thermal Regulation, SOT-23-5" H 5700 3800 50  0001 L CNN "Description"
F 5 "1" H 5700 3700 50  0001 L CNN "Height"
F 6 "TOP POWER" H 5700 3600 50  0001 L CNN "Manufacturer_Name"
F 7 "TP4054-42-SOT25-R" H 5700 3500 50  0001 L CNN "Manufacturer_Part_Number"
F 8 "" H 5700 3400 50  0001 L CNN "Mouser Part Number"
F 9 "" H 5700 3300 50  0001 L CNN "Mouser Price/Stock"
F 10 "" H 5700 3200 50  0001 L CNN "Arrow Part Number"
F 11 "" H 5700 3100 50  0001 L CNN "Arrow Price/Stock"
	1    4650 3900
	-1   0    0    -1  
$EndComp
$Comp
L Device:R R6
U 1 1 6099BC81
P 3100 4450
F 0 "R6" H 3170 4496 50  0000 L CNN
F 1 "10K" H 3170 4405 50  0000 L CNN
F 2 "Resistor_SMD:R_0402_1005Metric" V 3030 4450 50  0001 C CNN
F 3 "~" H 3100 4450 50  0001 C CNN
	1    3100 4450
	1    0    0    -1  
$EndComp
Wire Wire Line
	4650 4100 5550 4100
Wire Wire Line
	5550 4100 5550 4250
Connection ~ 5550 4100
Wire Wire Line
	6450 4200 6150 4200
Wire Wire Line
	6150 4200 6150 4650
Wire Wire Line
	5550 4650 5550 4550
Wire Wire Line
	4650 4000 5000 4000
Wire Wire Line
	5000 4000 5000 4650
Wire Wire Line
	3100 4300 3100 4000
Wire Wire Line
	3100 4000 3450 4000
$Comp
L lora-module-cache:GND #PWR06
U 1 1 60A97D93
P 3100 4600
F 0 "#PWR06" H 3100 4350 50  0001 C CNN
F 1 "GND" H 3105 4427 50  0000 C CNN
F 2 "" H 3100 4600 50  0001 C CNN
F 3 "" H 3100 4600 50  0001 C CNN
	1    3100 4600
	1    0    0    -1  
$EndComp
$Comp
L Device:LED D1
U 1 1 60A98241
P 2500 3350
F 0 "D1" H 2493 3095 50  0000 C CNN
F 1 "LED" H 2493 3186 50  0000 C CNN
F 2 "LED_SMD:LED_0402_1005Metric" H 2500 3350 50  0001 C CNN
F 3 "~" H 2500 3350 50  0001 C CNN
	1    2500 3350
	0    1    1    0   
$EndComp
$Comp
L Device:R R3
U 1 1 60A9B9D6
P 2500 3650
F 0 "R3" H 2570 3696 50  0000 L CNN
F 1 "330" H 2570 3605 50  0000 L CNN
F 2 "Resistor_SMD:R_0402_1005Metric" V 2430 3650 50  0001 C CNN
F 3 "~" H 2500 3650 50  0001 C CNN
	1    2500 3650
	1    0    0    -1  
$EndComp
$Comp
L Device:C C1
U 1 1 60A9C1BF
P 2000 4050
F 0 "C1" H 2115 4096 50  0000 L CNN
F 1 "10uF" H 2115 4005 50  0000 L CNN
F 2 "Capacitor_SMD:C_0402_1005Metric" H 2038 3900 50  0001 C CNN
F 3 "~" H 2000 4050 50  0001 C CNN
	1    2000 4050
	1    0    0    -1  
$EndComp
$Comp
L lora-module-cache:GND #PWR02
U 1 1 60A9CBB6
P 2000 4200
F 0 "#PWR02" H 2000 3950 50  0001 C CNN
F 1 "GND" H 2005 4027 50  0000 C CNN
F 2 "" H 2000 4200 50  0001 C CNN
F 3 "" H 2000 4200 50  0001 C CNN
	1    2000 4200
	1    0    0    -1  
$EndComp
$Comp
L power:+5V #PWR01
U 1 1 60A9CFEE
P 1350 3900
F 0 "#PWR01" H 1350 3750 50  0001 C CNN
F 1 "+5V" V 1365 4028 50  0000 L CNN
F 2 "" H 1350 3900 50  0001 C CNN
F 3 "" H 1350 3900 50  0001 C CNN
	1    1350 3900
	0    -1   -1   0   
$EndComp
Wire Wire Line
	1350 3900 2000 3900
Connection ~ 2000 3900
Wire Wire Line
	2000 3900 2500 3900
Wire Wire Line
	2500 3900 2500 3800
Connection ~ 2500 3900
Wire Wire Line
	2500 3900 3450 3900
Wire Wire Line
	2500 3200 4650 3200
Wire Wire Line
	4650 3200 4650 3900
$Comp
L Interface_USB:CP2102N-A01-GQFN28 U4
U 1 1 60AE67D9
P 13100 4150
F 0 "U4" H 13100 2761 50  0000 C CNN
F 1 "CP2102N-A01-GQFN28" H 13100 2670 50  0000 C CNN
F 2 "Package_DFN_QFN:QFN-28-1EP_5x5mm_P0.5mm_EP3.35x3.35mm" H 13550 2950 50  0001 L CNN
F 3 "https://www.silabs.com/documents/public/data-sheets/cp2102n-datasheet.pdf" H 13150 3400 50  0001 C CNN
	1    13100 4150
	1    0    0    -1  
$EndComp
$Comp
L lora-module-cache:GND #PWR048
U 1 1 60AE9A4C
P 13100 5450
F 0 "#PWR048" H 13100 5200 50  0001 C CNN
F 1 "GND" H 13105 5277 50  0000 C CNN
F 2 "" H 13100 5450 50  0001 C CNN
F 3 "" H 13100 5450 50  0001 C CNN
	1    13100 5450
	1    0    0    -1  
$EndComp
Text HLabel 12600 3550 0    50   Input ~ 0
D_P
Text HLabel 12600 3650 0    50   Input ~ 0
D_N
$Comp
L power:+5V #PWR045
U 1 1 60B36BA0
P 12150 2650
F 0 "#PWR045" H 12150 2500 50  0001 C CNN
F 1 "+5V" H 12165 2823 50  0000 C CNN
F 2 "" H 12150 2650 50  0001 C CNN
F 3 "" H 12150 2650 50  0001 C CNN
	1    12150 2650
	1    0    0    -1  
$EndComp
$Comp
L Device:R R13
U 1 1 60B37E73
P 12150 2900
F 0 "R13" H 12080 2854 50  0000 R CNN
F 1 "4,7K" H 12080 2945 50  0000 R CNN
F 2 "Resistor_SMD:R_0402_1005Metric" V 12080 2900 50  0001 C CNN
F 3 "~" H 12150 2900 50  0001 C CNN
	1    12150 2900
	-1   0    0    1   
$EndComp
Wire Wire Line
	12150 2650 12150 2750
Wire Wire Line
	12150 3050 12150 3250
Wire Wire Line
	12150 3250 12600 3250
$Comp
L Device:C C34
U 1 1 60B5ECB7
P 13550 1900
F 0 "C34" V 13298 1900 50  0000 C CNN
F 1 "1uF" V 13389 1900 50  0000 C CNN
F 2 "Capacitor_SMD:C_0402_1005Metric" H 13588 1750 50  0001 C CNN
F 3 "~" H 13550 1900 50  0001 C CNN
	1    13550 1900
	0    1    1    0   
$EndComp
$Comp
L Device:C C35
U 1 1 60B61E83
P 13550 2150
F 0 "C35" V 13298 2150 50  0000 C CNN
F 1 "0,1uF" V 13389 2150 50  0000 C CNN
F 2 "Capacitor_SMD:C_0402_1005Metric" H 13588 2000 50  0001 C CNN
F 3 "~" H 13550 2150 50  0001 C CNN
	1    13550 2150
	0    1    1    0   
$EndComp
$Comp
L Device:C C36
U 1 1 60B62224
P 13550 2400
F 0 "C36" V 13298 2400 50  0000 C CNN
F 1 "1uF" V 13389 2400 50  0000 C CNN
F 2 "Capacitor_SMD:C_0402_1005Metric" H 13588 2250 50  0001 C CNN
F 3 "~" H 13550 2400 50  0001 C CNN
	1    13550 2400
	0    1    1    0   
$EndComp
$Comp
L power:+5V #PWR047
U 1 1 60B62749
P 13000 1650
F 0 "#PWR047" H 13000 1500 50  0001 C CNN
F 1 "+5V" H 13015 1823 50  0000 C CNN
F 2 "" H 13000 1650 50  0001 C CNN
F 3 "" H 13000 1650 50  0001 C CNN
	1    13000 1650
	1    0    0    -1  
$EndComp
$Comp
L lora-module-cache:GND #PWR054
U 1 1 60B750FD
P 14000 2450
F 0 "#PWR054" H 14000 2200 50  0001 C CNN
F 1 "GND" H 14005 2277 50  0000 C CNN
F 2 "" H 14000 2450 50  0001 C CNN
F 3 "" H 14000 2450 50  0001 C CNN
	1    14000 2450
	1    0    0    -1  
$EndComp
Wire Wire Line
	14000 2450 14000 2400
Wire Wire Line
	14000 1900 13700 1900
Wire Wire Line
	13700 2150 14000 2150
Connection ~ 14000 2150
Wire Wire Line
	14000 2150 14000 1900
Wire Wire Line
	13700 2400 14000 2400
Connection ~ 14000 2400
Wire Wire Line
	14000 2400 14000 2150
Wire Wire Line
	13100 2850 13100 2400
Wire Wire Line
	13100 2400 13400 2400
Wire Wire Line
	13000 2850 13000 2150
Wire Wire Line
	13000 2150 13400 2150
Wire Wire Line
	13000 2150 13000 1900
Wire Wire Line
	13000 1900 13400 1900
Connection ~ 13000 2150
Wire Wire Line
	13000 1650 13000 1900
Connection ~ 13000 1900
Wire Wire Line
	12600 3450 12450 3450
Wire Wire Line
	12450 3450 12450 2150
Wire Wire Line
	12450 2150 13000 2150
$Comp
L lora-module-cache:+3.3V #PWR022
U 1 1 60C9C1AF
P 5300 10600
F 0 "#PWR022" H 5300 10450 50  0001 C CNN
F 1 "+3.3V" H 5315 10773 50  0000 C CNN
F 2 "" H 5300 10600 50  0001 C CNN
F 3 "" H 5300 10600 50  0001 C CNN
	1    5300 10600
	1    0    0    -1  
$EndComp
$Comp
L Device:C C11
U 1 1 60C9D27A
P 5700 10800
F 0 "C11" V 5448 10800 50  0000 C CNN
F 1 "0,1uF" V 5539 10800 50  0000 C CNN
F 2 "Capacitor_SMD:C_0402_1005Metric" H 5738 10650 50  0001 C CNN
F 3 "~" H 5700 10800 50  0001 C CNN
	1    5700 10800
	0    1    1    0   
$EndComp
$Comp
L lora-module-cache:GND #PWR025
U 1 1 60C9F19A
P 6100 10800
F 0 "#PWR025" H 6100 10550 50  0001 C CNN
F 1 "GND" V 6105 10672 50  0000 R CNN
F 2 "" H 6100 10800 50  0001 C CNN
F 3 "" H 6100 10800 50  0001 C CNN
	1    6100 10800
	0    -1   -1   0   
$EndComp
Wire Wire Line
	4950 11050 5300 11050
Wire Wire Line
	5300 11050 5300 10800
Wire Wire Line
	5300 10800 5550 10800
Connection ~ 5300 10800
Wire Wire Line
	5300 10800 5300 10600
Wire Wire Line
	5850 10800 6100 10800
$Comp
L Device:R R10
U 1 1 60CE0782
P 5250 11250
F 0 "R10" V 5457 11250 50  0000 C CNN
F 1 "200" V 5366 11250 50  0000 C CNN
F 2 "Resistor_SMD:R_0402_1005Metric" V 5180 11250 50  0001 C CNN
F 3 "~" H 5250 11250 50  0001 C CNN
	1    5250 11250
	0    -1   -1   0   
$EndComp
Wire Wire Line
	4950 11250 5100 11250
Text HLabel 3150 11150 0    50   Input ~ 0
FLASH_SDO
Text HLabel 3150 11250 0    50   Input ~ 0
FLASH_SWP
Text HLabel 4950 11350 2    50   Input ~ 0
FLASH_SDI
Text HLabel 5400 11250 2    50   Input ~ 0
FLASH_SCK
Text HLabel 4950 11150 2    50   Input ~ 0
FLASH_SHD
$Comp
L lora-module-cache:GND #PWR07
U 1 1 60CF90B2
P 3150 12150
F 0 "#PWR07" H 3150 11900 50  0001 C CNN
F 1 "GND" H 3155 11977 50  0000 C CNN
F 2 "" H 3150 12150 50  0001 C CNN
F 3 "" H 3150 12150 50  0001 C CNN
	1    3150 12150
	1    0    0    -1  
$EndComp
$Comp
L power:+BATT #PWR023
U 1 1 60D4391B
P 6100 4100
F 0 "#PWR023" H 6100 3950 50  0001 C CNN
F 1 "+BATT" H 6115 4273 50  0000 C CNN
F 2 "" H 6100 4100 50  0001 C CNN
F 3 "" H 6100 4100 50  0001 C CNN
	1    6100 4100
	1    0    0    -1  
$EndComp
Connection ~ 6100 4100
Wire Wire Line
	6100 4100 6450 4100
$Comp
L FGPMMOPA6H:FGPMMOPA6H IC3
U 1 1 60D5E24C
P 19150 7800
F 0 "IC3" H 19850 8065 50  0000 C CNN
F 1 "FGPMMOPA6H" H 19850 7974 50  0000 C CNN
F 2 "Package_SO:SOP-20_7.5x12.8mm_P1.27mm" H 20400 7900 50  0001 L CNN
F 3 "https://cdn-shop.adafruit.com/datasheets/GlobalTop-FGPMMOPA6H-Datasheet-V0A.pdf" H 20400 7800 50  0001 L CNN
F 4 "GPS Standalone Module, 20-pin" H 20400 7700 50  0001 L CNN "Description"
F 5 "" H 20400 7600 50  0001 L CNN "Height"
F 6 "GlobalTop Technology Inc." H 20400 7500 50  0001 L CNN "Manufacturer_Name"
F 7 "FGPMMOPA6H" H 20400 7400 50  0001 L CNN "Manufacturer_Part_Number"
F 8 "" H 20400 7300 50  0001 L CNN "Mouser Part Number"
F 9 "" H 20400 7200 50  0001 L CNN "Mouser Price/Stock"
F 10 "" H 20400 7100 50  0001 L CNN "Arrow Part Number"
F 11 "" H 20400 7000 50  0001 L CNN "Arrow Price/Stock"
	1    19150 7800
	1    0    0    -1  
$EndComp
$Comp
L Device:Antenna_Shield AE2
U 1 1 60D611EE
P 21400 8700
F 0 "AE2" V 21386 8930 50  0000 L CNN
F 1 "Antenna_Shield" V 21477 8930 50  0000 L CNN
F 2 "Connector_PinHeader_1.00mm:PinHeader_1x02_P1.00mm_Vertical" H 21400 8800 50  0001 C CNN
F 3 "~" H 21400 8800 50  0001 C CNN
	1    21400 8700
	0    1    1    0   
$EndComp
$Comp
L lora-module-cache:GND #PWR080
U 1 1 60D79EAB
P 20800 9050
F 0 "#PWR080" H 20800 8800 50  0001 C CNN
F 1 "GND" H 20805 8877 50  0000 C CNN
F 2 "" H 20800 9050 50  0001 C CNN
F 3 "" H 20800 9050 50  0001 C CNN
	1    20800 9050
	1    0    0    -1  
$EndComp
$Comp
L lora-module-cache:+3.3V #PWR074
U 1 1 60D7C2C7
P 18550 7450
F 0 "#PWR074" H 18550 7300 50  0001 C CNN
F 1 "+3.3V" H 18565 7623 50  0000 C CNN
F 2 "" H 18550 7450 50  0001 C CNN
F 3 "" H 18550 7450 50  0001 C CNN
	1    18550 7450
	1    0    0    -1  
$EndComp
$Comp
L Device:C C51
U 1 1 60D7D4D3
P 17750 7750
F 0 "C51" H 17865 7796 50  0000 L CNN
F 1 "0,1uF" H 17865 7705 50  0000 L CNN
F 2 "Capacitor_SMD:C_0402_1005Metric" H 17788 7600 50  0001 C CNN
F 3 "~" H 17750 7750 50  0001 C CNN
	1    17750 7750
	1    0    0    -1  
$EndComp
$Comp
L Device:LED D5
U 1 1 60D80AA7
P 18500 8200
F 0 "D5" H 18493 8417 50  0000 C CNN
F 1 "LED" H 18493 8326 50  0000 C CNN
F 2 "LED_SMD:LED_0402_1005Metric" H 18500 8200 50  0001 C CNN
F 3 "~" H 18500 8200 50  0001 C CNN
	1    18500 8200
	1    0    0    -1  
$EndComp
$Comp
L Device:R R19
U 1 1 60D82208
P 18200 8200
F 0 "R19" V 17993 8200 50  0000 C CNN
F 1 "470" V 18084 8200 50  0000 C CNN
F 2 "Resistor_SMD:R_0402_1005Metric" V 18130 8200 50  0001 C CNN
F 3 "~" H 18200 8200 50  0001 C CNN
	1    18200 8200
	0    1    1    0   
$EndComp
$Comp
L lora-module-cache:GND #PWR071
U 1 1 60D833B8
P 17750 9000
F 0 "#PWR071" H 17750 8750 50  0001 C CNN
F 1 "GND" H 17755 8827 50  0000 C CNN
F 2 "" H 17750 9000 50  0001 C CNN
F 3 "" H 17750 9000 50  0001 C CNN
	1    17750 9000
	1    0    0    -1  
$EndComp
Wire Wire Line
	19150 7800 18550 7800
Wire Wire Line
	18550 7800 18550 7550
Wire Wire Line
	19150 8000 17750 8000
Wire Wire Line
	17750 8000 17750 7900
Wire Wire Line
	17750 7600 17750 7550
Wire Wire Line
	17750 7550 18550 7550
Connection ~ 18550 7550
Wire Wire Line
	18550 7550 18550 7450
Wire Wire Line
	17750 8000 17750 8200
Connection ~ 17750 8000
Wire Wire Line
	19150 8200 18650 8200
Wire Wire Line
	18050 8200 17750 8200
Connection ~ 17750 8200
Wire Wire Line
	17750 8200 17750 8500
NoConn ~ 19150 7900
NoConn ~ 19150 8100
NoConn ~ 19150 8300
NoConn ~ 19150 8400
NoConn ~ 20550 7800
NoConn ~ 20550 8000
NoConn ~ 20550 8100
NoConn ~ 20550 8200
NoConn ~ 20550 8300
NoConn ~ 20550 8500
NoConn ~ 20550 8400
$Comp
L lora-module-cache:+3.3V #PWR072
U 1 1 60F6ECC4
P 18150 8700
F 0 "#PWR072" H 18150 8550 50  0001 C CNN
F 1 "+3.3V" H 18165 8873 50  0000 C CNN
F 2 "" H 18150 8700 50  0001 C CNN
F 3 "" H 18150 8700 50  0001 C CNN
	1    18150 8700
	0    -1   -1   0   
$EndComp
Wire Wire Line
	19150 8500 17750 8500
Connection ~ 17750 8500
Wire Wire Line
	17750 8500 17750 9000
Wire Wire Line
	20550 8700 21200 8700
Wire Wire Line
	21200 8800 20800 8800
Wire Wire Line
	20800 8800 20800 9050
Wire Wire Line
	20550 8600 20800 8600
Wire Wire Line
	20800 8600 20800 8800
Connection ~ 20800 8800
Wire Wire Line
	20550 7900 20800 7900
Wire Wire Line
	20800 7900 20800 8600
Connection ~ 20800 8600
Wire Wire Line
	18150 8700 19150 8700
$Comp
L lora-module-cache:GND #PWR061
U 1 1 61081764
P 17650 3300
F 0 "#PWR061" H 17650 3050 50  0001 C CNN
F 1 "GND" V 17655 3172 50  0000 R CNN
F 2 "" H 17650 3300 50  0001 C CNN
F 3 "" H 17650 3300 50  0001 C CNN
	1    17650 3300
	0    1    1    0   
$EndComp
$Comp
L lora-module-cache:GND #PWR062
U 1 1 61082671
P 17650 4300
F 0 "#PWR062" H 17650 4050 50  0001 C CNN
F 1 "GND" V 17655 4172 50  0000 R CNN
F 2 "" H 17650 4300 50  0001 C CNN
F 3 "" H 17650 4300 50  0001 C CNN
	1    17650 4300
	0    1    1    0   
$EndComp
$Comp
L Switch:SW_Push_Dual_x2 SW2
U 1 1 61084445
P 18100 3300
F 0 "SW2" H 18100 3585 50  0000 C CNN
F 1 "SW_Push_Dual_x2" H 18100 3494 50  0000 C CNN
F 2 "Button_Switch_SMD:SW_SPST_B3U-1000P" H 18100 3500 50  0001 C CNN
F 3 "~" H 18100 3500 50  0001 C CNN
	1    18100 3300
	1    0    0    -1  
$EndComp
$Comp
L Switch:SW_Push_Dual_x2 SW1
U 1 1 610855B1
P 18050 4300
F 0 "SW1" H 18050 4585 50  0000 C CNN
F 1 "SW_Push_Dual_x2" H 18050 4494 50  0000 C CNN
F 2 "Button_Switch_SMD:SW_SPST_B3U-1000P" H 18050 4500 50  0001 C CNN
F 3 "~" H 18050 4500 50  0001 C CNN
	1    18050 4300
	1    0    0    -1  
$EndComp
$Comp
L Device:R R18
U 1 1 61085F18
P 18700 3050
F 0 "R18" V 18493 3050 50  0000 C CNN
F 1 "10K" V 18584 3050 50  0000 C CNN
F 2 "Resistor_SMD:R_0402_1005Metric" V 18630 3050 50  0001 C CNN
F 3 "~" H 18700 3050 50  0001 C CNN
	1    18700 3050
	0    1    1    0   
$EndComp
$Comp
L Device:R R16
U 1 1 61087122
P 18500 4150
F 0 "R16" H 18430 4104 50  0000 R CNN
F 1 "10K" H 18430 4195 50  0000 R CNN
F 2 "Resistor_SMD:R_0402_1005Metric" V 18430 4150 50  0001 C CNN
F 3 "~" H 18500 4150 50  0001 C CNN
	1    18500 4150
	-1   0    0    1   
$EndComp
$Comp
L Device:C C49
U 1 1 61087942
P 18550 3500
F 0 "C49" H 18665 3546 50  0000 L CNN
F 1 "2,2uF" H 18665 3455 50  0000 L CNN
F 2 "Capacitor_SMD:C_0402_1005Metric" H 18588 3350 50  0001 C CNN
F 3 "~" H 18550 3500 50  0001 C CNN
	1    18550 3500
	1    0    0    -1  
$EndComp
$Comp
L Device:C C50
U 1 1 610A1F9B
P 19150 3650
F 0 "C50" H 19265 3696 50  0000 L CNN
F 1 "0,1uF" H 19265 3605 50  0000 L CNN
F 2 "Capacitor_SMD:C_0402_1005Metric" H 19188 3500 50  0001 C CNN
F 3 "~" H 19150 3650 50  0001 C CNN
	1    19150 3650
	1    0    0    -1  
$EndComp
$Comp
L lora-module-cache:+3.3V #PWR068
U 1 1 610A3740
P 18950 2900
F 0 "#PWR068" H 18950 2750 50  0001 C CNN
F 1 "+3.3V" H 18965 3073 50  0000 C CNN
F 2 "" H 18950 2900 50  0001 C CNN
F 3 "" H 18950 2900 50  0001 C CNN
	1    18950 2900
	1    0    0    -1  
$EndComp
$Comp
L lora-module-cache:+3.3V #PWR065
U 1 1 610A4D5A
P 18500 3950
F 0 "#PWR065" H 18500 3800 50  0001 C CNN
F 1 "+3.3V" H 18515 4123 50  0000 C CNN
F 2 "" H 18500 3950 50  0001 C CNN
F 3 "" H 18500 3950 50  0001 C CNN
	1    18500 3950
	1    0    0    -1  
$EndComp
$Comp
L PMDT290UNE_115:PMDT290UNE,115 Q3
U 1 1 610C2528
P 19950 4100
F 0 "Q3" H 20400 4365 50  0000 C CNN
F 1 "BSS138DW" H 20400 4274 50  0000 C CNN
F 2 "Package_TO_SOT_SMD:SOT-363_SC-70-6" H 20700 4200 50  0001 L CNN
F 3 "https://assets.nexperia.com/documents/data-sheet/PMDT290UNE.pdf" H 20700 4100 50  0001 L CNN
F 4 "Dual N-Channel MOSFET, 800 mA, 20 V, 6-Pin SOT-666 Nexperia PMDT290UNE,115" H 20700 4000 50  0001 L CNN "Description"
F 5 "0.6" H 20700 3900 50  0001 L CNN "Height"
F 6 "Nexperia" H 20700 3800 50  0001 L CNN "Manufacturer_Name"
F 7 "PMDT290UNE,115" H 20700 3700 50  0001 L CNN "Manufacturer_Part_Number"
F 8 "771-PMDT290UNE,115" H 20700 3600 50  0001 L CNN "Mouser Part Number"
F 9 "https://www.mouser.co.uk/ProductDetail/Nexperia/PMDT290UNE115?qs=N31o%252Bt096gvRiADTUf%252BVPQ%3D%3D" H 20700 3500 50  0001 L CNN "Mouser Price/Stock"
F 10 "PMDT290UNE,115" H 20700 3400 50  0001 L CNN "Arrow Part Number"
F 11 "https://www.arrow.com/en/products/pmdt290une115/nexperia" H 20700 3300 50  0001 L CNN "Arrow Price/Stock"
	1    19950 4100
	1    0    0    -1  
$EndComp
Wire Wire Line
	17650 3300 17800 3300
Wire Wire Line
	17650 4300 17850 4300
Wire Wire Line
	18250 4300 18500 4300
Wire Wire Line
	18500 4000 18500 3950
Wire Wire Line
	18300 3300 18550 3300
Wire Wire Line
	18550 3300 18550 3050
Wire Wire Line
	18850 3050 18950 3050
Wire Wire Line
	18950 3050 18950 2900
Wire Wire Line
	18550 3350 18550 3300
Connection ~ 18550 3300
Wire Wire Line
	18550 3650 17800 3650
Wire Wire Line
	17800 3650 17800 3300
Connection ~ 17800 3300
Wire Wire Line
	17800 3300 17900 3300
Wire Wire Line
	19150 3300 19150 3500
Connection ~ 19150 3300
Wire Wire Line
	19150 3300 18550 3300
Wire Wire Line
	20850 4300 21150 4300
Wire Wire Line
	21150 4300 21150 3300
Wire Wire Line
	19150 3300 19700 3300
Wire Wire Line
	19950 4100 19800 4100
Wire Wire Line
	19800 4100 19800 3600
Wire Wire Line
	19800 3600 20400 3600
Wire Wire Line
	21050 3600 21050 4200
Wire Wire Line
	21050 4200 20850 4200
Wire Wire Line
	19150 3800 19150 4200
Wire Wire Line
	19150 4700 20950 4700
Wire Wire Line
	20950 4700 20950 4100
Wire Wire Line
	20950 4100 20850 4100
Wire Wire Line
	19950 4200 19700 4200
Connection ~ 19150 4200
Wire Wire Line
	19150 4200 19150 4700
Wire Wire Line
	19950 4300 18500 4300
Connection ~ 18500 4300
Text HLabel 19550 3150 0    50   Input ~ 0
CHIP_PU
Text HLabel 19600 4100 0    50   Input ~ 0
DTR
Text HLabel 20600 3500 2    50   Input ~ 0
RTS
Wire Wire Line
	19550 3150 19700 3150
Wire Wire Line
	19700 3150 19700 3300
Connection ~ 19700 3300
Wire Wire Line
	19700 3300 21150 3300
Wire Wire Line
	20600 3500 20400 3500
Wire Wire Line
	20400 3500 20400 3600
Connection ~ 20400 3600
Wire Wire Line
	20400 3600 21050 3600
Wire Wire Line
	19600 4100 19700 4100
Wire Wire Line
	19700 4100 19700 4200
Connection ~ 19700 4200
Wire Wire Line
	19700 4200 19150 4200
Text HLabel 12350 11400 0    50   Input ~ 0
CHIP_PU
Text HLabel 13600 3550 2    50   Input ~ 0
DTR
Text HLabel 13600 3150 2    50   Input ~ 0
RTS
Text HLabel 12350 12750 0    50   Input ~ 0
U0TXD
Text HLabel 11950 12650 0    50   Input ~ 0
U0RXD_
Wire Wire Line
	12350 12650 12250 12650
Text HLabel 13600 3350 2    50   Input ~ 0
U0RXD_
Text HLabel 13600 3250 2    50   Input ~ 0
U0TXD
NoConn ~ 13600 5250
NoConn ~ 13600 5150
NoConn ~ 13600 5050
NoConn ~ 13600 4950
NoConn ~ 13600 4850
NoConn ~ 13600 4750
NoConn ~ 13600 4650
NoConn ~ 13600 4450
NoConn ~ 13600 4350
NoConn ~ 13600 4250
NoConn ~ 13600 4050
NoConn ~ 13600 3950
NoConn ~ 13600 3750
NoConn ~ 13600 3650
NoConn ~ 13600 3450
NoConn ~ 13600 3050
Wire Wire Line
	5850 2300 5850 4100
Wire Wire Line
	5550 4100 5850 4100
Connection ~ 5850 4100
Wire Wire Line
	5850 4100 6100 4100
$Comp
L power:+BATT #PWR04
U 1 1 615E7247
P 4300 7950
F 0 "#PWR04" H 4300 7800 50  0001 C CNN
F 1 "+BATT" H 4315 8123 50  0000 C CNN
F 2 "" H 4300 7950 50  0001 C CNN
F 3 "" H 4300 7950 50  0001 C CNN
	1    4300 7950
	1    0    0    -1  
$EndComp
$Comp
L Device:R R4
U 1 1 615E8809
P 4300 8200
F 0 "R4" H 4370 8246 50  0000 L CNN
F 1 "220K" H 4370 8155 50  0000 L CNN
F 2 "Resistor_SMD:R_0402_1005Metric" V 4230 8200 50  0001 C CNN
F 3 "~" H 4300 8200 50  0001 C CNN
	1    4300 8200
	1    0    0    -1  
$EndComp
$Comp
L Device:R R5
U 1 1 615E9B6F
P 4300 8650
F 0 "R5" H 4370 8696 50  0000 L CNN
F 1 "100K" H 4370 8605 50  0000 L CNN
F 2 "Resistor_SMD:R_0402_1005Metric" V 4230 8650 50  0001 C CNN
F 3 "~" H 4300 8650 50  0001 C CNN
	1    4300 8650
	1    0    0    -1  
$EndComp
$Comp
L Transistor_FET:AO3401A Q1
U 1 1 615EA125
P 4200 9150
F 0 "Q1" H 4405 9104 50  0000 L CNN
F 1 "AO3401A" H 4405 9195 50  0000 L CNN
F 2 "Package_TO_SOT_SMD:SOT-23" H 4400 9075 50  0001 L CIN
F 3 "http://www.aosmd.com/pdfs/datasheet/AO3401A.pdf" H 4200 9150 50  0001 L CNN
	1    4200 9150
	1    0    0    1   
$EndComp
$Comp
L Device:R R1
U 1 1 615EE26D
P 3500 9150
F 0 "R1" V 3293 9150 50  0000 C CNN
F 1 "1K" V 3384 9150 50  0000 C CNN
F 2 "Resistor_SMD:R_0402_1005Metric" V 3430 9150 50  0001 C CNN
F 3 "~" H 3500 9150 50  0001 C CNN
	1    3500 9150
	0    1    1    0   
$EndComp
$Comp
L Device:R R2
U 1 1 615EEC21
P 3850 8850
F 0 "R2" H 3780 8804 50  0000 R CNN
F 1 "10K" H 3780 8895 50  0000 R CNN
F 2 "Resistor_SMD:R_0402_1005Metric" V 3780 8850 50  0001 C CNN
F 3 "~" H 3850 8850 50  0001 C CNN
	1    3850 8850
	-1   0    0    1   
$EndComp
$Comp
L lora-module-cache:+3.3V #PWR03
U 1 1 615EF5D7
P 3850 8550
F 0 "#PWR03" H 3850 8400 50  0001 C CNN
F 1 "+3.3V" H 3865 8723 50  0000 C CNN
F 2 "" H 3850 8550 50  0001 C CNN
F 3 "" H 3850 8550 50  0001 C CNN
	1    3850 8550
	1    0    0    -1  
$EndComp
Wire Wire Line
	3850 8700 3850 8550
Wire Wire Line
	3650 9150 3850 9150
Wire Wire Line
	3850 9000 3850 9150
Connection ~ 3850 9150
Wire Wire Line
	3850 9150 4000 9150
Wire Wire Line
	4300 8950 4300 8800
Wire Wire Line
	4300 8050 4300 7950
Wire Wire Line
	4300 8400 4650 8400
Wire Wire Line
	4300 8350 4300 8400
Connection ~ 4300 8400
Wire Wire Line
	4300 8400 4300 8500
Wire Wire Line
	3350 9150 3250 9150
Wire Wire Line
	4300 9350 4300 9450
$Comp
L lora-module-cache:GND #PWR05
U 1 1 617112E1
P 4300 9450
F 0 "#PWR05" H 4300 9200 50  0001 C CNN
F 1 "GND" H 4305 9277 50  0000 C CNN
F 2 "" H 4300 9450 50  0001 C CNN
F 3 "" H 4300 9450 50  0001 C CNN
	1    4300 9450
	1    0    0    -1  
$EndComp
$Comp
L Device:LED D6
U 1 1 61715EAD
P 20350 12400
F 0 "D6" H 20343 12145 50  0000 C CNN
F 1 "LED" H 20343 12236 50  0000 C CNN
F 2 "LED_SMD:LED_0402_1005Metric" H 20350 12400 50  0001 C CNN
F 3 "~" H 20350 12400 50  0001 C CNN
	1    20350 12400
	-1   0    0    1   
$EndComp
$Comp
L Device:R R22
U 1 1 61716BDB
P 20050 12400
F 0 "R22" V 19843 12400 50  0000 C CNN
F 1 "220" V 19934 12400 50  0000 C CNN
F 2 "Resistor_SMD:R_0402_1005Metric" V 19980 12400 50  0001 C CNN
F 3 "~" H 20050 12400 50  0001 C CNN
	1    20050 12400
	0    1    1    0   
$EndComp
$Comp
L power:GND #PWR079
U 1 1 61716BE5
P 20500 12400
F 0 "#PWR079" H 20500 12150 50  0001 C CNN
F 1 "GND" H 20505 12227 50  0000 C CNN
F 2 "" H 20500 12400 50  0001 C CNN
F 3 "" H 20500 12400 50  0001 C CNN
	1    20500 12400
	1    0    0    -1  
$EndComp
$Comp
L Device:R R21
U 1 1 617C33D5
P 19500 11500
F 0 "R21" V 19293 11500 50  0000 C CNN
F 1 "10K" V 19384 11500 50  0000 C CNN
F 2 "Resistor_SMD:R_0402_1005Metric" V 19430 11500 50  0001 C CNN
F 3 "~" H 19500 11500 50  0001 C CNN
	1    19500 11500
	0    1    1    0   
$EndComp
$Comp
L Device:R R20
U 1 1 617C4031
P 18950 11500
F 0 "R20" V 18743 11500 50  0000 C CNN
F 1 "10K" V 18834 11500 50  0000 C CNN
F 2 "Resistor_SMD:R_0402_1005Metric" V 18880 11500 50  0001 C CNN
F 3 "~" H 18950 11500 50  0001 C CNN
	1    18950 11500
	0    1    1    0   
$EndComp
$Comp
L Switch:SW_Push_Dual_x2 SW3
U 1 1 617C43B5
P 19950 11500
F 0 "SW3" H 19950 11785 50  0000 C CNN
F 1 "SW_Push_Dual_x2" H 19950 11694 50  0000 C CNN
F 2 "Button_Switch_SMD:SW_SPST_B3U-1000P" H 19950 11700 50  0001 C CNN
F 3 "~" H 19950 11700 50  0001 C CNN
	1    19950 11500
	1    0    0    -1  
$EndComp
$Comp
L Switch:SW_Reed SW4
U 1 1 617C656F
P 18500 11500
F 0 "SW4" H 18500 11722 50  0000 C CNN
F 1 "SW_Reed" H 18500 11631 50  0000 C CNN
F 2 "Resistor_SMD:R_2512_6332Metric" H 18500 11500 50  0001 C CNN
F 3 "~" H 18500 11500 50  0001 C CNN
	1    18500 11500
	1    0    0    -1  
$EndComp
$Comp
L lora-module-cache:+3.3V #PWR078
U 1 1 617C80DE
P 20350 11050
F 0 "#PWR078" H 20350 10900 50  0001 C CNN
F 1 "+3.3V" H 20365 11223 50  0000 C CNN
F 2 "" H 20350 11050 50  0001 C CNN
F 3 "" H 20350 11050 50  0001 C CNN
	1    20350 11050
	1    0    0    -1  
$EndComp
$Comp
L lora-module-cache:+3.3V #PWR073
U 1 1 617C9481
P 18150 11050
F 0 "#PWR073" H 18150 10900 50  0001 C CNN
F 1 "+3.3V" H 18165 11223 50  0000 C CNN
F 2 "" H 18150 11050 50  0001 C CNN
F 3 "" H 18150 11050 50  0001 C CNN
	1    18150 11050
	1    0    0    -1  
$EndComp
Wire Wire Line
	18150 11050 18150 11500
Wire Wire Line
	18150 11500 18300 11500
Wire Wire Line
	20150 11500 20350 11500
Wire Wire Line
	20350 11500 20350 11050
Wire Wire Line
	19750 11500 19700 11500
Wire Wire Line
	18800 11500 18750 11500
$Comp
L power:GND #PWR077
U 1 1 61852336
P 19200 11600
F 0 "#PWR077" H 19200 11350 50  0001 C CNN
F 1 "GND" H 19205 11427 50  0000 C CNN
F 2 "" H 19200 11600 50  0001 C CNN
F 3 "" H 19200 11600 50  0001 C CNN
	1    19200 11600
	1    0    0    -1  
$EndComp
Wire Wire Line
	19200 11600 19200 11500
Wire Wire Line
	19200 11500 19100 11500
Wire Wire Line
	19200 11500 19350 11500
Connection ~ 19200 11500
Wire Wire Line
	18750 11500 18750 10950
Wire Wire Line
	18750 10950 18900 10950
Connection ~ 18750 11500
Wire Wire Line
	18750 11500 18700 11500
Wire Wire Line
	19700 11500 19700 10950
Wire Wire Line
	19700 10950 19550 10950
Connection ~ 19700 11500
Wire Wire Line
	19700 11500 19650 11500
Text HLabel 19550 10950 0    50   Input ~ 0
36
Text HLabel 18900 10950 2    50   Input ~ 0
37
Text HLabel 12300 11100 0    50   Input ~ 0
37
Text HLabel 12300 11000 0    50   Input ~ 0
36
Text HLabel 19900 12400 0    50   Input ~ 0
12
$Comp
L Connector:Conn_01x02_Female J4
U 1 1 6192C494
P 20150 15300
F 0 "J4" H 20042 14975 50  0000 C CNN
F 1 "Conn_01x02_Female" H 20042 15066 50  0000 C CNN
F 2 "Connector_PinSocket_2.54mm:PinSocket_1x02_P2.54mm_Vertical" H 20150 15300 50  0001 C CNN
F 3 "~" H 20150 15300 50  0001 C CNN
	1    20150 15300
	1    0    0    -1  
$EndComp
$Comp
L lora-module-cache:GND #PWR069
U 1 1 6192F6EE
P 19500 15950
F 0 "#PWR069" H 19500 15700 50  0001 C CNN
F 1 "GND" H 19505 15777 50  0000 C CNN
F 2 "" H 19500 15950 50  0001 C CNN
F 3 "" H 19500 15950 50  0001 C CNN
	1    19500 15950
	1    0    0    -1  
$EndComp
Text HLabel 18400 15500 0    50   Input ~ 0
21
Text HLabel 18400 15300 0    50   Input ~ 0
13
Text HLabel 18400 15100 0    50   Input ~ 0
25
Text HLabel 14100 12100 2    50   Input ~ 0
25
Text HLabel 3250 9150 0    50   Input ~ 0
21
Text HLabel 4650 8400 2    50   Input ~ 0
13
Text HLabel 14050 12800 2    50   Input ~ 0
FLASH_SCK
Text HLabel 14050 12900 2    50   Input ~ 0
FLASH_SDO
Text HLabel 14050 13000 2    50   Input ~ 0
FLASH_SDI
Text HLabel 14050 12700 2    50   Input ~ 0
FLASH_SCS
Text HLabel 14050 12600 2    50   Input ~ 0
FLASH_SWP
Text HLabel 14050 12500 2    50   Input ~ 0
FLASH_SHD
NoConn ~ 14050 11000
NoConn ~ 14050 11100
NoConn ~ 14050 11900
NoConn ~ 14050 12000
$Comp
L eec:LDL1117S33R U2
U 1 1 6085D4DA
P 6800 2300
F 0 "U2" H 7350 2565 50  0000 C CNN
F 1 "LDL1117S33R" H 7350 2474 50  0000 C CNN
F 2 "Package_TO_SOT_SMD:SOT-223" H 6800 2700 50  0001 L CNN
F 3 "https://www.st.com/resource/en/datasheet/ldl1117.pdf" H 6800 2800 50  0001 L CNN
F 4 "2%" H 6800 2900 50  0001 L CNN "accuracy percentage"
F 5 "No" H 6800 3000 50  0001 L CNN "automotive"
F 6 "IC" H 6800 3100 50  0001 L CNN "category"
F 7 "Integrated Circuits (ICs)" H 6800 3200 50  0001 L CNN "device class L1"
F 8 "Power Management ICs" H 6800 3300 50  0001 L CNN "device class L2"
F 9 "Voltage Regulators - Linear" H 6800 3400 50  0001 L CNN "device class L3"
F 10 "IC REG LINEAR 3.3V 1.2A SOT223" H 6800 3500 50  0001 L CNN "digikey description"
F 11 "497-17239-1-ND" H 6800 3600 50  0001 L CNN "digikey part number"
F 12 "350mV" H 6800 3700 50  0001 L CNN "dropout voltage"
F 13 "1.9mm" H 6800 3800 50  0001 L CNN "height"
F 14 "SOT230P700X190-4" H 6800 3900 50  0001 L CNN "ipc land pattern name"
F 15 "Yes" H 6800 4000 50  0001 L CNN "lead free"
F 16 "2ac9cc49ee6e598a" H 6800 4100 50  0001 L CNN "library id"
F 17 "STMicroelectronics" H 6800 4200 50  0001 L CNN "manufacturer"
F 18 "+125°C" H 6800 4300 50  0001 L CNN "max junction temp"
F 19 "18V" H 6800 4400 50  0001 L CNN "max supply voltage"
F 20 "2.6V" H 6800 4500 50  0001 L CNN "min supply voltage"
F 21 "LDL1117 Series 1.2 A 3.3 V High PSRR LDO Linear Voltage Regulator-SOT-223" H 6800 4600 50  0001 L CNN "mouser description"
F 22 "511-LDL1117S33R" H 6800 4700 50  0001 L CNN "mouser part number"
F 23 "250uA" H 6800 4800 50  0001 L CNN "nominal supply current"
F 24 "1" H 6800 4900 50  0001 L CNN "number of outputs"
F 25 "2A" H 6800 5000 50  0001 L CNN "output current"
F 26 "Fixed" H 6800 5100 50  0001 L CNN "output type"
F 27 "3.3V" H 6800 5200 50  0001 L CNN "output voltage"
F 28 "SOT223" H 6800 5300 50  0001 L CNN "package"
F 29 "Yes" H 6800 5400 50  0001 L CNN "rohs"
F 30 "0.02mm" H 6800 5500 50  0001 L CNN "standoff height"
F 31 "+125°C" H 6800 5600 50  0001 L CNN "temperature range high"
F 32 "-40°C" H 6800 5700 50  0001 L CNN "temperature range low"
	1    6800 2300
	1    0    0    -1  
$EndComp
Wire Wire Line
	7800 2300 7900 2300
Wire Wire Line
	6500 2300 6900 2300
Wire Wire Line
	7800 2400 7900 2400
Wire Wire Line
	7900 2400 7900 2300
Connection ~ 7900 2300
Wire Wire Line
	7900 2300 8200 2300
Wire Wire Line
	8200 2300 8750 2300
$Comp
L lora-module-cache:GND #PWR0101
U 1 1 60942186
P 7850 2800
F 0 "#PWR0101" H 7850 2550 50  0001 C CNN
F 1 "GND" H 7855 2627 50  0000 C CNN
F 2 "" H 7850 2800 50  0001 C CNN
F 3 "" H 7850 2800 50  0001 C CNN
	1    7850 2800
	1    0    0    -1  
$EndComp
Wire Wire Line
	7850 2800 7850 2600
Wire Wire Line
	7850 2600 7800 2600
$Comp
L Allegro:A3910 U6
U 1 1 609B47B7
P 18900 15400
F 0 "U6" H 18900 16167 50  0000 C CNN
F 1 "A3910" H 18900 16076 50  0000 C CNN
F 2 "Package_DFN_QFN:DFN-8-1EP_2x2mm_P0.5mm_EP0.9x1.6mm" H 18900 14650 50  0001 C CNN
F 3 "http://www.allegromicro.com/~/media/Files/Datasheets/A3910-Datasheet.pdf" H 18900 14500 50  0001 C CNN
F 4 "IC ALLEGRO A3910EEETR-T [SON-9]" H 18900 14350 50  0001 C CNN "BOM"
	1    18900 15400
	1    0    0    -1  
$EndComp
$Comp
L power:+5V #PWR0102
U 1 1 60A03FE7
P 19600 14700
F 0 "#PWR0102" H 19600 14550 50  0001 C CNN
F 1 "+5V" H 19615 14873 50  0000 C CNN
F 2 "" H 19600 14700 50  0001 C CNN
F 3 "" H 19600 14700 50  0001 C CNN
	1    19600 14700
	1    0    0    -1  
$EndComp
Text HLabel 14050 11800 2    50   Input ~ 0
21
Text HLabel 14050 11500 2    50   Input ~ 0
17
Text HLabel 14050 10700 2    50   Input ~ 0
13
Text HLabel 14050 10600 2    50   Input ~ 0
12
Text HLabel 18400 15700 0    50   Input ~ 0
17
Wire Wire Line
	19400 15100 19950 15100
Wire Wire Line
	19950 15400 19400 15400
Wire Wire Line
	19400 15400 19400 15600
Wire Wire Line
	19400 15800 19500 15800
Wire Wire Line
	19500 15800 19500 15900
Wire Wire Line
	19400 15900 19500 15900
Connection ~ 19500 15900
Wire Wire Line
	19500 15900 19500 15950
Wire Wire Line
	19400 14900 19600 14900
Wire Wire Line
	19600 14900 19600 14700
Text HLabel 3150 11050 0    50   Input ~ 0
FLASH_SCS
Wire Wire Line
	19950 15100 19950 15300
Text HLabel 12300 11600 0    50   Input ~ 0
0GPS
Wire Wire Line
	12350 11700 12350 11600
Wire Wire Line
	12300 11600 12350 11600
Wire Wire Line
	12300 11700 12350 11700
Connection ~ 12350 11700
Wire Wire Line
	19050 8600 19150 8600
$Comp
L W25Q64FVZPIG:W25Q64FVZPIG IC1
U 1 1 60C3DF4A
P 3150 11050
F 0 "IC1" H 4050 11315 50  0000 C CNN
F 1 "AT25SF161" H 4050 11224 50  0000 C CNN
F 2 "Package_SO:SOIC-8_3.9x4.9mm_P1.27mm" H 4800 11150 50  0001 L CNN
F 3 "https://www.winbond.com/resource-files/w25q64fv revq 06142016.pdf" H 4800 11050 50  0001 L CNN
F 4 "3V 64M-BIT SERIAL FLASH MEMORY WITH DUAL/QUAD SPI & QPI, ZP Package - WSON-8" H 4800 10950 50  0001 L CNN "Description"
F 5 "0.8" H 4800 10850 50  0001 L CNN "Height"
F 6 "Winbond" H 4800 10750 50  0001 L CNN "Manufacturer_Name"
F 7 "W25Q64FVZPIG" H 4800 10650 50  0001 L CNN "Manufacturer_Part_Number"
F 8 "N/A" H 4800 10550 50  0001 L CNN "Mouser Part Number"
F 9 "https://www.mouser.com/Search/Refine.aspx?Keyword=N%2FA" H 4800 10450 50  0001 L CNN "Mouser Price/Stock"
F 10 "W25Q64FVZPIG" H 4800 10350 50  0001 L CNN "Arrow Part Number"
F 11 "https://www.arrow.com/en/products/w25q64fvzpig/winbond-electronics" H 4800 10250 50  0001 L CNN "Arrow Price/Stock"
	1    3150 11050
	1    0    0    -1  
$EndComp
Wire Wire Line
	3150 11350 3150 12150
Text HLabel 19050 8600 0    50   Input ~ 0
0GPS
$EndSCHEMATC
